{
	"Cannonball": 2,
	"Cannon base": 6,
	"Cannon stand": 8,
	"Cannon barrels": 10,
	"Cannon furnace": 12,
	"Insect repellent": 28,
	"Bucket of wax": 30,
	"Candle": 36,
	"Bronze arrowtips": 39,
	"Iron arrowtips": 40,
	"Steel arrowtips": 41,
	"Mithril arrowtips": 42,
	"Adamant arrowtips": 43,
	"Rune arrowtips": 44,
	"Opal bolt tips": 45,
	"Pearl bolt tips": 46,
	"Barb bolttips": 47,
	"Longbow (u)": 48,
	"Shortbow (u)": 50,
	"Arrow shaft": 52,
	"Headless arrow": 53,
	"Oak shortbow (u)": 54,
	"Oak longbow (u)": 56,
	"Willow longbow (u)": 58,
	"Willow shortbow (u)": 60,
	"Maple longbow (u)": 62,
	"Maple shortbow (u)": 64,
	"Yew longbow (u)": 66,
	"Yew shortbow (u)": 68,
	"Magic longbow (u)": 70,
	"Magic shortbow (u)": 72,
	"Guam potion (unf)": 91,
	"Marrentill potion (unf)": 93,
	"Tarromin potion (unf)": 95,
	"Harralander potion (unf)": 97,
	"Ranarr potion (unf)": 99,
	"Irit potion (unf)": 101,
	"Avantoe potion (unf)": 103,
	"Kwuarm potion (unf)": 105,
	"Cadantine potion (unf)": 107,
	"Dwarf weed potion (unf)": 109,
	"Torstol potion (unf)": 111,
	"Strength potion(4)": 113,
	"Strength potion(3)": 115,
	"Strength potion(2)": 117,
	"Strength potion(1)": 119,
	"Attack potion(3)": 121,
	"Attack potion(2)": 123,
	"Attack potion(1)": 125,
	"Restore potion(3)": 127,
	"Restore potion(2)": 129,
	"Restore potion(1)": 131,
	"Defence potion(3)": 133,
	"Defence potion(2)": 135,
	"Defence potion(1)": 137,
	"Prayer potion(3)": 139,
	"Prayer potion(2)": 141,
	"Prayer potion(1)": 143,
	"Super attack(3)": 145,
	"Super attack(2)": 147,
	"Super attack(1)": 149,
	"Fishing potion(3)": 151,
	"Fishing potion(2)": 153,
	"Fishing potion(1)": 155,
	"Super strength(3)": 157,
	"Super strength(2)": 159,
	"Super strength(1)": 161,
	"Super defence(3)": 163,
	"Super defence(2)": 165,
	"Super defence(1)": 167,
	"Ranging potion(3)": 169,
	"Ranging potion(2)": 171,
	"Ranging potion(1)": 173,
	"Antipoison(3)": 175,
	"Antipoison(2)": 177,
	"Antipoison(1)": 179,
	"Superantipoison(3)": 181,
	"Superantipoison(2)": 183,
	"Superantipoison(1)": 185,
	"Weapon poison": 187,
	"Zamorak brew(3)": 189,
	"Zamorak brew(2)": 191,
	"Zamorak brew(1)": 193,
	"Poison chalice": 197,
	"Grimy guam leaf": 199,
	"Grimy marrentill": 201,
	"Grimy tarromin": 203,
	"Grimy harralander": 205,
	"Grimy ranarr weed": 207,
	"Grimy irit leaf": 209,
	"Grimy avantoe": 211,
	"Grimy kwuarm": 213,
	"Grimy cadantine": 215,
	"Grimy dwarf weed": 217,
	"Grimy torstol": 219,
	"Eye of newt": 221,
	"Red spiders' eggs": 223,
	"Limpwurt root": 225,
	"Vial of water": 227,
	"Vial": 229,
	"Snape grass": 231,
	"Pestle and mortar": 233,
	"Unicorn horn dust": 235,
	"Unicorn horn": 237,
	"White berries": 239,
	"Dragon scale dust": 241,
	"Blue dragon scale": 243,
	"Wine of zamorak": 245,
	"Jangerberries": 247,
	"Guam leaf": 249,
	"Marrentill": 251,
	"Tarromin": 253,
	"Harralander": 255,
	"Ranarr weed": 257,
	"Irit leaf": 259,
	"Avantoe": 261,
	"Kwuarm": 263,
	"Cadantine": 265,
	"Dwarf weed": 267,
	"Torstol": 269,
	"Fish food": 272,
	"Poison": 273,
	"Goblin mail": 288,
	"Mithril seeds": 299,
	"Lobster pot": 301,
	"Small fishing net": 303,
	"Big fishing net": 305,
	"Fishing rod": 307,
	"Fly fishing rod": 309,
	"Harpoon": 311,
	"Fishing bait": 313,
	"Feather": 314,
	"Shrimps": 315,
	"Raw shrimps": 317,
	"Anchovies": 319,
	"Raw anchovies": 321,
	"Sardine": 325,
	"Raw sardine": 327,
	"Salmon": 329,
	"Raw salmon": 331,
	"Trout": 333,
	"Raw trout": 335,
	"Cod": 339,
	"Raw cod": 341,
	"Raw herring": 345,
	"Herring": 347,
	"Raw pike": 349,
	"Pike": 351,
	"Raw mackerel": 353,
	"Mackerel": 355,
	"Raw tuna": 359,
	"Tuna": 361,
	"Raw bass": 363,
	"Bass": 365,
	"Raw swordfish": 371,
	"Swordfish": 373,
	"Raw lobster": 377,
	"Lobster": 379,
	"Raw shark": 383,
	"Shark": 385,
	"Raw manta ray": 389,
	"Manta ray": 391,
	"Raw sea turtle": 395,
	"Sea turtle": 397,
	"Seaweed": 401,
	"Edible seaweed": 403,
	"Casket": 405,
	"Oyster": 407,
	"Oyster pearl": 411,
	"Oyster pearls": 413,
	"Priest gown": 428,
	"Clay": 434,
	"Copper ore": 436,
	"Tin ore": 438,
	"Iron ore": 440,
	"Silver ore": 442,
	"Gold ore": 444,
	"Mithril ore": 447,
	"Adamantite ore": 449,
	"Runite ore": 451,
	"Coal": 453,
	"Strange fruit": 464,
	"Bones": 526,
	"Burnt bones": 528,
	"Bat bones": 530,
	"Big bones": 532,
	"Babydragon bones": 534,
	"Dragon bones": 536,
	"Druid's robe": 538,
	"Druid's robe top": 540,
	"Monk's robe": 542,
	"Monk's robe top": 544,
	"Shade robe top": 546,
	"Shade robe": 548,
	"Fire rune": 554,
	"Water rune": 555,
	"Air rune": 556,
	"Earth rune": 557,
	"Mind rune": 558,
	"Body rune": 559,
	"Death rune": 560,
	"Nature rune": 561,
	"Chaos rune": 562,
	"Law rune": 563,
	"Cosmic rune": 564,
	"Blood rune": 565,
	"Soul rune": 566,
	"Unpowered orb": 567,
	"Fire orb": 569,
	"Water orb": 571,
	"Air orb": 573,
	"Earth orb": 575,
	"Blue wizard robe": 577,
	"Blue wizard hat": 579,
	"Black robe": 581,
	"Tinderbox": 590,
	"Ashes": 592,
	"Unlit torch": 596,
	"Ship ticket": 621,
	"Pink boots": 626,
	"Green boots": 628,
	"Blue boots": 630,
	"Cream boots": 632,
	"Turquoise boots": 634,
	"Pink robe top": 636,
	"Green robe top": 638,
	"Blue robe top": 640,
	"Cream robe top": 642,
	"Turquoise robe top": 644,
	"Pink robe bottoms": 646,
	"Green robe bottoms": 648,
	"Blue robe bottoms": 650,
	"Cream robe bottoms": 652,
	"Turquoise robe bottoms": 654,
	"Pink hat": 656,
	"Green hat": 658,
	"Blue hat": 660,
	"Cream hat": 662,
	"Turquoise hat": 664,
	"Gnomeball": 751,
	"Cadava berries": 753,
	"Bronze thrownaxe": 800,
	"Iron thrownaxe": 801,
	"Steel thrownaxe": 802,
	"Mithril thrownaxe": 803,
	"Adamant thrownaxe": 804,
	"Rune thrownaxe": 805,
	"Bronze dart": 806,
	"Iron dart": 807,
	"Steel dart": 808,
	"Mithril dart": 809,
	"Adamant dart": 810,
	"Rune dart": 811,
	"Bronze dart(p)": 812,
	"Iron dart(p)": 813,
	"Steel dart(p)": 814,
	"Mithril dart(p)": 815,
	"Adamant dart(p)": 816,
	"Rune dart(p)": 817,
	"Bronze dart tip": 819,
	"Iron dart tip": 820,
	"Steel dart tip": 821,
	"Mithril dart tip": 822,
	"Adamant dart tip": 823,
	"Rune dart tip": 824,
	"Bronze javelin": 825,
	"Iron javelin": 826,
	"Steel javelin": 827,
	"Mithril javelin": 828,
	"Adamant javelin": 829,
	"Rune javelin": 830,
	"Bronze javelin(p)": 831,
	"Iron javelin(p)": 832,
	"Steel javelin(p)": 833,
	"Mithril javelin(p)": 834,
	"Adamant javelin(p)": 835,
	"Rune javelin(p)": 836,
	"Crossbow": 837,
	"Longbow": 839,
	"Shortbow": 841,
	"Oak shortbow": 843,
	"Oak longbow": 845,
	"Willow longbow": 847,
	"Willow shortbow": 849,
	"Maple longbow": 851,
	"Maple shortbow": 853,
	"Yew longbow": 855,
	"Yew shortbow": 857,
	"Magic longbow": 859,
	"Magic shortbow": 861,
	"Iron knife": 863,
	"Bronze knife": 864,
	"Steel knife": 865,
	"Mithril knife": 866,
	"Adamant knife": 867,
	"Rune knife": 868,
	"Black knife": 869,
	"Bronze knife(p)": 870,
	"Iron knife(p)": 871,
	"Steel knife(p)": 872,
	"Mithril knife(p)": 873,
	"Black knife(p)": 874,
	"Adamant knife(p)": 875,
	"Rune knife(p)": 876,
	"Bronze bolts": 877,
	"Bronze bolts(p)": 878,
	"Opal bolts": 879,
	"Pearl bolts": 880,
	"Barbed bolts": 881,
	"Bronze arrow": 882,
	"Bronze arrow(p)": 883,
	"Iron arrow": 884,
	"Iron arrow(p)": 885,
	"Steel arrow": 886,
	"Steel arrow(p)": 887,
	"Mithril arrow": 888,
	"Mithril arrow(p)": 889,
	"Adamant arrow": 890,
	"Adamant arrow(p)": 891,
	"Rune arrow": 892,
	"Rune arrow(p)": 893,
	"Knife": 946,
	"Bear fur": 948,
	"Silk": 950,
	"Spade": 952,
	"Rope": 954,
	"Grey wolf fur": 958,
	"Plank": 960,
	"Christmas cracker": 962,
	"Papyrus": 970,
	"Charcoal": 973,
	"Machete": 975,
	"Disk of returning": 981,
	"Brass key": 983,
	"Tooth half of key": 985,
	"Loop half of key": 987,
	"Crystal key": 989,
	"Muddy key": 991,
	"Sinister key": 993,
	"Coins": 995,
	"White apron": 1005,
	"Red cape": 1007,
	"Brass necklace": 1009,
	"Blue skirt": 1011,
	"Pink skirt": 1013,
	"Black skirt": 1015,
	"Wizard hat": 1017,
	"Black cape": 1019,
	"Blue cape": 1021,
	"Yellow cape": 1023,
	"Eye patch": 1025,
	"Green cape": 1027,
	"Purple cape": 1029,
	"Orange cape": 1031,
	"Zamorak robe": 1035,
	"Red partyhat": 1038,
	"Yellow partyhat": 1040,
	"Blue partyhat": 1042,
	"Green partyhat": 1044,
	"Purple partyhat": 1046,
	"White partyhat": 1048,
	"Santa hat": 1050,
	"Green halloween mask": 1053,
	"Blue halloween mask": 1055,
	"Red halloween mask": 1057,
	"Leather gloves": 1059,
	"Leather boots": 1061,
	"Leather vambraces": 1063,
	"Green d'hide vamb": 1065,
	"Iron platelegs": 1067,
	"Steel platelegs": 1069,
	"Mithril platelegs": 1071,
	"Adamant platelegs": 1073,
	"Bronze platelegs": 1075,
	"Black platelegs": 1077,
	"Rune platelegs": 1079,
	"Iron plateskirt": 1081,
	"Steel plateskirt": 1083,
	"Mithril plateskirt": 1085,
	"Bronze plateskirt": 1087,
	"Black plateskirt": 1089,
	"Adamant plateskirt": 1091,
	"Rune plateskirt": 1093,
	"Leather chaps": 1095,
	"Studded chaps": 1097,
	"Green d'hide chaps": 1099,
	"Iron chainbody": 1101,
	"Bronze chainbody": 1103,
	"Steel chainbody": 1105,
	"Black chainbody": 1107,
	"Mithril chainbody": 1109,
	"Adamant chainbody": 1111,
	"Rune chainbody": 1113,
	"Iron platebody": 1115,
	"Bronze platebody": 1117,
	"Steel platebody": 1119,
	"Mithril platebody": 1121,
	"Adamant platebody": 1123,
	"Black platebody": 1125,
	"Rune platebody": 1127,
	"Leather body": 1129,
	"Hardleather body": 1131,
	"Studded body": 1133,
	"Green d'hide body": 1135,
	"Iron med helm": 1137,
	"Bronze med helm": 1139,
	"Steel med helm": 1141,
	"Mithril med helm": 1143,
	"Adamant med helm": 1145,
	"Rune med helm": 1147,
	"Dragon med helm": 1149,
	"Black med helm": 1151,
	"Iron full helm": 1153,
	"Bronze full helm": 1155,
	"Steel full helm": 1157,
	"Mithril full helm": 1159,
	"Adamant full helm": 1161,
	"Rune full helm": 1163,
	"Black full helm": 1165,
	"Leather cowl": 1167,
	"Coif": 1169,
	"Wooden shield": 1171,
	"Bronze sq shield": 1173,
	"Iron sq shield": 1175,
	"Steel sq shield": 1177,
	"Black sq shield": 1179,
	"Mithril sq shield": 1181,
	"Adamant sq shield": 1183,
	"Rune sq shield": 1185,
	"Dragon sq shield": 1187,
	"Bronze kiteshield": 1189,
	"Iron kiteshield": 1191,
	"Steel kiteshield": 1193,
	"Black kiteshield": 1195,
	"Mithril kiteshield": 1197,
	"Adamant kiteshield": 1199,
	"Rune kiteshield": 1201,
	"Iron dagger": 1203,
	"Bronze dagger": 1205,
	"Steel dagger": 1207,
	"Mithril dagger": 1209,
	"Adamant dagger": 1211,
	"Rune dagger": 1213,
	"Dragon dagger": 1215,
	"Black dagger": 1217,
	"Iron dagger(p)": 1219,
	"Bronze dagger(p)": 1221,
	"Steel dagger(p)": 1223,
	"Mithril dagger(p)": 1225,
	"Adamant dagger(p)": 1227,
	"Rune dagger(p)": 1229,
	"Dragon dagger(p)": 1231,
	"Black dagger(p)": 1233,
	"Bronze spear": 1237,
	"Iron spear": 1239,
	"Steel spear": 1241,
	"Mithril spear": 1243,
	"Adamant spear": 1245,
	"Rune spear": 1247,
	"Dragon spear": 1249,
	"Bronze spear(p)": 1251,
	"Iron spear(p)": 1253,
	"Steel spear(p)": 1255,
	"Mithril spear(p)": 1257,
	"Adamant spear(p)": 1259,
	"Rune spear(p)": 1261,
	"Dragon spear(p)": 1263,
	"Bronze pickaxe": 1265,
	"Iron pickaxe": 1267,
	"Steel pickaxe": 1269,
	"Adamant pickaxe": 1271,
	"Mithril pickaxe": 1273,
	"Rune pickaxe": 1275,
	"Bronze sword": 1277,
	"Iron sword": 1279,
	"Steel sword": 1281,
	"Black sword": 1283,
	"Mithril sword": 1285,
	"Adamant sword": 1287,
	"Rune sword": 1289,
	"Bronze longsword": 1291,
	"Iron longsword": 1293,
	"Steel longsword": 1295,
	"Black longsword": 1297,
	"Mithril longsword": 1299,
	"Adamant longsword": 1301,
	"Rune longsword": 1303,
	"Dragon longsword": 1305,
	"Bronze 2h sword": 1307,
	"Iron 2h sword": 1309,
	"Steel 2h sword": 1311,
	"Black 2h sword": 1313,
	"Mithril 2h sword": 1315,
	"Adamant 2h sword": 1317,
	"Rune 2h sword": 1319,
	"Bronze scimitar": 1321,
	"Iron scimitar": 1323,
	"Steel scimitar": 1325,
	"Black scimitar": 1327,
	"Mithril scimitar": 1329,
	"Adamant scimitar": 1331,
	"Rune scimitar": 1333,
	"Iron warhammer": 1335,
	"Bronze warhammer": 1337,
	"Steel warhammer": 1339,
	"Black warhammer": 1341,
	"Mithril warhammer": 1343,
	"Adamant warhammer": 1345,
	"Rune warhammer": 1347,
	"Iron axe": 1349,
	"Bronze axe": 1351,
	"Steel axe": 1353,
	"Mithril axe": 1355,
	"Adamant axe": 1357,
	"Rune axe": 1359,
	"Black axe": 1361,
	"Iron battleaxe": 1363,
	"Steel battleaxe": 1365,
	"Black battleaxe": 1367,
	"Mithril battleaxe": 1369,
	"Adamant battleaxe": 1371,
	"Rune battleaxe": 1373,
	"Bronze battleaxe": 1375,
	"Dragon battleaxe": 1377,
	"Staff": 1379,
	"Staff of air": 1381,
	"Staff of water": 1383,
	"Staff of earth": 1385,
	"Staff of fire": 1387,
	"Magic staff": 1389,
	"Battlestaff": 1391,
	"Fire battlestaff": 1393,
	"Water battlestaff": 1395,
	"Air battlestaff": 1397,
	"Earth battlestaff": 1399,
	"Mystic fire staff": 1401,
	"Mystic water staff": 1403,
	"Mystic air staff": 1405,
	"Mystic earth staff": 1407,
	"Iron mace": 1420,
	"Bronze mace": 1422,
	"Steel mace": 1424,
	"Black mace": 1426,
	"Mithril mace": 1428,
	"Adamant mace": 1430,
	"Rune mace": 1432,
	"Dragon mace": 1434,
	"Rune essence": 1436,
	"Air talisman": 1438,
	"Earth talisman": 1440,
	"Fire talisman": 1442,
	"Water talisman": 1444,
	"Body talisman": 1446,
	"Mind talisman": 1448,
	"Chaos talisman": 1452,
	"Cosmic talisman": 1454,
	"Death talisman": 1456,
	"Nature talisman": 1462,
	"Archery ticket": 1464,
	"Red bead": 1470,
	"Yellow bead": 1472,
	"Black bead": 1474,
	"White bead": 1476,
	"Amulet of accuracy": 1478,
	"Logs": 1511,
	"Magic logs": 1513,
	"Yew logs": 1515,
	"Maple logs": 1517,
	"Willow logs": 1519,
	"Oak logs": 1521,
	"Lockpick": 1523,
	"Steel nails": 1539,
	"Anti-dragon shield": 1540,
	"Garlic": 1550,
	"Seasoned sardine": 1552,
	"Doogle leaves": 1573,
	"Ring mould": 1592,
	"Amulet mould": 1595,
	"Necklace mould": 1597,
	"Holy mould": 1599,
	"Diamond": 1601,
	"Ruby": 1603,
	"Emerald": 1605,
	"Sapphire": 1607,
	"Opal": 1609,
	"Jade": 1611,
	"Red topaz": 1613,
	"Dragonstone": 1615,
	"Uncut diamond": 1617,
	"Uncut ruby": 1619,
	"Uncut emerald": 1621,
	"Uncut sapphire": 1623,
	"Uncut opal": 1625,
	"Uncut jade": 1627,
	"Uncut red topaz": 1629,
	"Uncut dragonstone": 1631,
	"Gold ring": 1635,
	"Sapphire ring": 1637,
	"Emerald ring": 1639,
	"Ruby ring": 1641,
	"Diamond ring": 1643,
	"Dragonstone ring": 1645,
	"Gold necklace": 1654,
	"Sapphire necklace": 1656,
	"Emerald necklace": 1658,
	"Ruby necklace": 1660,
	"Diamond necklace": 1662,
	"Dragon necklace": 1664,
	"Gold amulet (u)": 1673,
	"Sapphire amulet (u)": 1675,
	"Emerald amulet (u)": 1677,
	"Ruby amulet (u)": 1679,
	"Diamond amulet (u)": 1681,
	"Dragonstone amulet (u)": 1683,
	"Gold amulet": 1692,
	"Sapphire amulet": 1694,
	"Emerald amulet": 1696,
	"Ruby amulet": 1698,
	"Diamond amulet": 1700,
	"Dragonstone amulet": 1702,
	"Amulet of glory": 1704,
	"Amulet of glory(4)": 1712,
	"Unstrung symbol": 1714,
	"Unblessed symbol": 1716,
	"Holy symbol": 1718,
	"Unstrung emblem": 1720,
	"Unpowered symbol": 1722,
	"Unholy symbol": 1724,
	"Amulet of strength": 1725,
	"Amulet of magic": 1727,
	"Amulet of defence": 1729,
	"Amulet of power": 1731,
	"Needle": 1733,
	"Thread": 1734,
	"Shears": 1735,
	"Wool": 1737,
	"Cowhide": 1739,
	"Leather": 1741,
	"Hard leather": 1743,
	"Green dragon leather": 1745,
	"Black dragonhide": 1747,
	"Red dragonhide": 1749,
	"Blue dragonhide": 1751,
	"Green dragonhide": 1753,
	"Chisel": 1755,
	"Brown apron": 1757,
	"Ball of wool": 1759,
	"Soft clay": 1761,
	"Red dye": 1763,
	"Yellow dye": 1765,
	"Blue dye": 1767,
	"Orange dye": 1769,
	"Green dye": 1771,
	"Purple dye": 1773,
	"Molten glass": 1775,
	"Bow string": 1777,
	"Flax": 1779,
	"Soda ash": 1781,
	"Bucket of sand": 1783,
	"Glassblowing pipe": 1785,
	"Unfired pot": 1787,
	"Unfired pie dish": 1789,
	"Unfired bowl": 1791,
	"Woad leaf": 1793,
	"Bronze wire": 1794,
	"Waterskin(4)": 1823,
	"Waterskin(0)": 1831,
	"Desert shirt": 1833,
	"Desert robe": 1835,
	"Desert boots": 1837,
	"Shantay pass": 1854,
	"Raw ugthanki meat": 1859,
	"Ugthanki meat": 1861,
	"Pitta bread": 1865,
	"Chopped tomato": 1869,
	"Chopped onion": 1871,
	"Chopped ugthanki": 1873,
	"Onion & tomato": 1875,
	"Ugthanki & onion": 1877,
	"Ugthanki & tomato": 1879,
	"Kebab mix": 1881,
	"Ugthanki kebab": 1885,
	"Cake tin": 1887,
	"Cake": 1891,
	"Chocolate cake": 1897,
	"Asgarnian ale": 8520,
	"Wizard's mind bomb": 1907,
	"Greenman's ale": 8522,
	"Dragon bitter": 8524,
	"Dwarven stout": 1913,
	"Grog": 1915,
	"Beer": 1917,
	"Beer glass": 1919,
	"Bowl of water": 1921,
	"Bowl": 1923,
	"Bucket": 1925,
	"Bucket of milk": 1927,
	"Bucket of water": 1929,
	"Pot": 1931,
	"Pot of flour": 1933,
	"Jug": 1935,
	"Jug of water": 1937,
	"Swamp tar": 1939,
	"Swamp paste": 1941,
	"Potato": 1942,
	"Egg": 1944,
	"Grain": 1947,
	"Chef's hat": 1949,
	"Redberries": 1951,
	"Pastry dough": 1953,
	"Cooking apple": 1955,
	"Onion": 1957,
	"Pumpkin": 1959,
	"Easter egg": 1961,
	"Banana": 1963,
	"Cabbage": 1965,
	"Spinach roll": 1969,
	"Kebab": 1971,
	"Chocolate bar": 1973,
	"Chocolate dust": 1975,
	"Cup of tea": 1978,
	"Empty cup": 1980,
	"Tomato": 1982,
	"Cheese": 1985,
	"Grapes": 1987,
	"Half full wine jug": 1989,
	"Jug of wine": 1993,
	"Stew": 2003,
	"Spice": 2007,
	"Curry": 2011,
	"Vodka": 2015,
	"Whisky": 2017,
	"Gin": 2019,
	"Brandy": 2021,
	"Cocktail guide": 2023,
	"Cocktail shaker": 2025,
	"Cocktail glass": 2026,
	"Premade blurb' sp.": 2028,
	"Premade choc s'dy": 2030,
	"Premade dr' dragon": 2032,
	"Premade fr' blast": 2034,
	"Premade p' punch": 2036,
	"Premade sgg": 2038,
	"Premade wiz blz'd": 2040,
	"Pineapple punch": 2048,
	"Wizard blizzard": 2054,
	"Blurberry special": 2064,
	"Choc saturday": 2074,
	"Short green guy": 2080,
	"Fruit blast": 2084,
	"Drunk dragon": 2092,
	"Lemon": 2102,
	"Lemon chunks": 2104,
	"Lemon slices": 2106,
	"Orange": 2108,
	"Orange chunks": 2110,
	"Orange slices": 2112,
	"Pineapple": 2114,
	"Pineapple chunks": 2116,
	"Pineapple ring": 2118,
	"Lime": 2120,
	"Lime chunks": 2122,
	"Lime slices": 2124,
	"Dwellberries": 2126,
	"Equa leaves": 2128,
	"Pot of cream": 2130,
	"Raw beef": 2132,
	"Raw rat meat": 2134,
	"Raw bear meat": 2136,
	"Raw chicken": 2138,
	"Cooked chicken": 2140,
	"Cooked meat": 2142,
	"Swamp toad": 2150,
	"Toad's legs": 2152,
	"King worm": 2162,
	"Batta tin": 2164,
	"Crunchy tray": 2165,
	"Gnomebowl mould": 2166,
	"Gianne's cook book": 2167,
	"Gnome spice": 2169,
	"Gianne dough": 2171,
	"Chocolate bomb": 2185,
	"Tangled toad's legs": 2187,
	"Worm hole": 2191,
	"Veg ball": 2195,
	"Rock-climbing boots": 2203,
	"Worm crunchies": 2205,
	"Chocchip crunchies": 2209,
	"Spicy crunchies": 2213,
	"Toad crunchies": 2217,
	"Premade w'm batta": 2219,
	"Premade t'd batta": 2221,
	"Premade c+t batta": 2223,
	"Premade fr't batta": 2225,
	"Premade veg batta": 2227,
	"Premade choc bomb": 2229,
	"Premade ttl": 2231,
	"Premade worm hole": 2233,
	"Premade veg ball": 2235,
	"Premade w'm crun'": 2237,
	"Premade ch' crunch": 2239,
	"Premade s'y crunch": 2241,
	"Premade t'd crunch": 2243,
	"Worm batta": 2253,
	"Toad batta": 2255,
	"Cheese+tom batta": 2259,
	"Fruit batta": 2277,
	"Vegetable batta": 2281,
	"Pizza base": 2283,
	"Plain pizza": 2289,
	"Meat pizza": 2293,
	"Anchovy pizza": 2297,
	"Pineapple pizza": 2301,
	"Bread dough": 2307,
	"Bread": 2309,
	"Pie dish": 2313,
	"Pie shell": 2315,
	"Uncooked apple pie": 2317,
	"Uncooked meat pie": 2319,
	"Uncooked berry pie": 2321,
	"Apple pie": 2323,
	"Redberry pie": 2325,
	"Meat pie": 2327,
	"Raw oomlie": 2337,
	"Wrapped oomlie": 2341,
	"Cooked oomlie wrap": 2343,
	"Hammer": 2347,
	"Bronze bar": 2349,
	"Iron bar": 2351,
	"Steel bar": 2353,
	"Silver bar": 2355,
	"Gold bar": 2357,
	"Mithril bar": 2359,
	"Adamantite bar": 2361,
	"Runite bar": 2363,
	"Shield left half": 2366,
	"Shield right half": 2368,
	"Steel studs": 2370,
	"Attack potion(4)": 2428,
	"Restore potion(4)": 2430,
	"Defence potion(4)": 2432,
	"Prayer potion(4)": 2434,
	"Super attack(4)": 2436,
	"Fishing potion(4)": 2438,
	"Super strength(4)": 2440,
	"Super defence(4)": 2442,
	"Ranging potion(4)": 2444,
	"Antipoison(4)": 2446,
	"Superantipoison(4)": 2448,
	"Zamorak brew(4)": 2450,
	"Antifire potion(4)": 2452,
	"Antifire potion(3)": 2454,
	"Antifire potion(2)": 2456,
	"Antifire potion(1)": 2458,
	"Assorted flowers": 2460,
	"Red flowers": 2462,
	"Blue flowers": 2464,
	"Yellow flowers": 2466,
	"Purple flowers": 2468,
	"Orange flowers": 2470,
	"Mixed flowers": 2472,
	"White flowers": 2474,
	"Black flowers": 2476,
	"Lantadyme": 2481,
	"Lantadyme potion (unf)": 2483,
	"Grimy lantadyme": 2485,
	"Blue d'hide vamb": 2487,
	"Red d'hide vamb": 2489,
	"Black d'hide vamb": 2491,
	"Blue d'hide chaps": 2493,
	"Red d'hide chaps": 2495,
	"Black d'hide chaps": 2497,
	"Blue d'hide body": 2499,
	"Red d'hide body": 2501,
	"Black d'hide body": 2503,
	"Blue dragon leather": 2505,
	"Red dragon leather": 2507,
	"Black dragon leather": 2509,
	"Brown toy horsey": 2520,
	"White toy horsey": 2522,
	"Black toy horsey": 2524,
	"Grey toy horsey": 2526,
	"Ring of recoil": 2550,
	"Ring of dueling(8)": 2552,
	"Ring of forging": 2568,
	"Ring of life": 2570,
	"Ring of wealth": 2572,
	"Ranger boots": 2577,
	"Wizard boots": 2579,
	"Robin hood hat": 2581,
	"Black platebody (t)": 2583,
	"Black platelegs (t)": 2585,
	"Black full helm (t)": 2587,
	"Black kiteshield (t)": 2589,
	"Black platebody (g)": 2591,
	"Black platelegs (g)": 2593,
	"Black full helm (g)": 2595,
	"Black kiteshield (g)": 2597,
	"Adamant platebody (t)": 2599,
	"Adamant platelegs (t)": 2601,
	"Adamant kiteshield (t)": 2603,
	"Adamant full helm (t)": 2605,
	"Adamant platebody (g)": 2607,
	"Adamant platelegs (g)": 2609,
	"Adamant kiteshield (g)": 2611,
	"Adamant full helm (g)": 2613,
	"Rune platebody (g)": 2615,
	"Rune platelegs (g)": 2617,
	"Rune full helm (g)": 2619,
	"Rune kiteshield (g)": 2621,
	"Rune platebody (t)": 2623,
	"Rune platelegs (t)": 2625,
	"Rune full helm (t)": 2627,
	"Rune kiteshield (t)": 2629,
	"Highwayman mask": 2631,
	"Blue beret": 2633,
	"Black beret": 2635,
	"White beret": 2637,
	"Tan cavalier": 2639,
	"Dark cavalier": 2641,
	"Black cavalier": 2643,
	"Red headband": 2645,
	"Black headband": 2647,
	"Brown headband": 2649,
	"Pirate's hat": 2651,
	"Zamorak platebody": 2653,
	"Zamorak platelegs": 2655,
	"Zamorak full helm": 2657,
	"Zamorak kiteshield": 2659,
	"Saradomin platebody": 2661,
	"Saradomin platelegs": 2663,
	"Saradomin full helm": 2665,
	"Saradomin kiteshield": 2667,
	"Guthix platebody": 2669,
	"Guthix platelegs": 2671,
	"Guthix full helm": 2673,
	"Guthix kiteshield": 2675,
	"Wolf bones": 2859,
	"Wolfbone arrowtips": 2861,
	"Achey tree logs": 2862,
	"Ogre arrow shaft": 2864,
	"Flighted ogre arrow": 2865,
	"Ogre arrow": 2866,
	"Raw chompy": 2876,
	"Cooked chompy": 7228,
	"Elemental shield": 2890,
	"Grey boots": 2894,
	"Grey robe top": 2896,
	"Grey robe bottoms": 2898,
	"Grey hat": 2900,
	"Grey gloves": 2902,
	"Red boots": 2904,
	"Red robe top": 2906,
	"Red robe bottoms": 2908,
	"Red hat": 2910,
	"Red gloves": 2912,
	"Yellow boots": 2914,
	"Yellow robe top": 2916,
	"Yellow robe bottoms": 2918,
	"Yellow hat": 2920,
	"Yellow gloves": 2922,
	"Teal boots": 2924,
	"Teal robe top": 2926,
	"Teal robe bottoms": 2928,
	"Teal hat": 2930,
	"Teal gloves": 2932,
	"Purple boots": 2934,
	"Purple robe top": 2936,
	"Purple robe bottoms": 2938,
	"Purple hat": 2940,
	"Purple gloves": 2942,
	"Moonlight mead": 2955,
	"Silver sickle": 2961,
	"Mort myre fungus": 2970,
	"Mort myre stem": 2972,
	"Mort myre pear": 2974,
	"Sickle mould": 2976,
	"Pirate's hook": 2997,
	"Toadflax": 2998,
	"Snapdragon": 3000,
	"Toadflax potion (unf)": 3002,
	"Snapdragon potion (unf)": 3004,
	"Energy potion(4)": 3008,
	"Energy potion(3)": 3010,
	"Energy potion(2)": 3012,
	"Energy potion(1)": 3014,
	"Super energy(4)": 3016,
	"Super energy(3)": 3018,
	"Super energy(2)": 3020,
	"Super energy(1)": 3022,
	"Super restore(4)": 3024,
	"Super restore(3)": 3026,
	"Super restore(2)": 3028,
	"Super restore(1)": 3030,
	"Agility potion(4)": 3032,
	"Agility potion(3)": 3034,
	"Agility potion(2)": 3036,
	"Agility potion(1)": 3038,
	"Magic potion(4)": 3040,
	"Magic potion(3)": 3042,
	"Magic potion(2)": 3044,
	"Magic potion(1)": 3046,
	"Grimy toadflax": 3049,
	"Grimy snapdragon": 3051,
	"Lava battlestaff": 3053,
	"Mystic lava staff": 3054,
	"Black dart": 3093,
	"Black dart(p)": 3094,
	"Bronze claws": 3095,
	"Iron claws": 3096,
	"Steel claws": 3097,
	"Black claws": 3098,
	"Mithril claws": 3099,
	"Adamant claws": 3100,
	"Rune claws": 3101,
	"Climbing boots": 3105,
	"Spiked boots": 3107,
	"Granite shield": 3122,
	"Shaikahan bones": 3123,
	"Jogre bones": 3125,
	"Potato cactus": 3138,
	"Dragon chainbody": 3140,
	"Raw karambwan": 3142,
	"Cooked karambwan": 3144,
	"Karambwan vessel": 3159,
	"Sliced banana": 3162,
	"Monkey bones": 3183,
	"Cleaning cloth": 3188,
	"Bronze halberd": 3190,
	"Iron halberd": 3192,
	"Steel halberd": 3194,
	"Black halberd": 3196,
	"Mithril halberd": 3198,
	"Adamant halberd": 3200,
	"Rune halberd": 3202,
	"Dragon halberd": 3204,
	"Limestone": 3211,
	"Barrel": 3216,
	"Raw rabbit": 3226,
	"Cooked rabbit": 3228,
	"Bark": 3239,
	"Vampire dust": 3325,
	"Myre snelm": 3337,
	"Blood'n'tar snelm": 3339,
	"Ochre snelm": 3341,
	"Bruise blue snelm": 3343,
	"Broken bark snelm": 3335,
	"Blamish myre shell": 3355,
	"Blamish red shell": 3357,
	"Blamish ochre shell": 3359,
	"Blamish blue shell": 3361,
	"Blamish bark shell": 3353,
	"Thin snail": 3363,
	"Lean snail": 3365,
	"Fat snail": 3367,
	"Thin snail meat": 3369,
	"Lean snail meat": 3371,
	"Fat snail meat": 3373,
	"Raw slimy eel": 3379,
	"Cooked slimy eel": 3381,
	"Splitbark helm": 3385,
	"Splitbark body": 3387,
	"Splitbark legs": 3389,
	"Splitbark gauntlets": 3391,
	"Splitbark boots": 3393,
	"Loar remains": 3396,
	"Phrin remains": 3398,
	"Riyl remains": 3400,
	"Asyn remains": 3402,
	"Fiyr remains": 3404,
	"Unfinished potion": 3406,
	"Serum 207 (4)": 3408,
	"Serum 207 (3)": 3410,
	"Serum 207 (2)": 3412,
	"Serum 207 (1)": 3414,
	"Limestone brick": 3420,
	"Olive oil(4)": 3422,
	"Olive oil(3)": 3424,
	"Olive oil(2)": 3426,
	"Olive oil(1)": 3428,
	"Sacred oil(4)": 3430,
	"Sacred oil(3)": 3432,
	"Sacred oil(2)": 3434,
	"Sacred oil(1)": 3436,
	"Pyre logs": 3438,
	"Oak pyre logs": 3440,
	"Willow pyre logs": 3442,
	"Maple pyre logs": 3444,
	"Yew pyre logs": 3446,
	"Magic pyre logs": 3448,
	"Fine cloth": 3470,
	"Black plateskirt (t)": 3472,
	"Black plateskirt (g)": 3473,
	"Adamant plateskirt (t)": 3474,
	"Adamant plateskirt (g)": 3475,
	"Rune plateskirt (g)": 3476,
	"Rune plateskirt (t)": 3477,
	"Zamorak plateskirt": 3478,
	"Saradomin plateskirt": 3479,
	"Guthix plateskirt": 3480,
	"Gilded platebody": 3481,
	"Gilded platelegs": 3483,
	"Gilded plateskirt": 3485,
	"Gilded full helm": 3486,
	"Gilded kiteshield": 3488,
	"Flamtaer hammer": 3678,
	"Archer helm": 3749,
	"Berserker helm": 3751,
	"Warrior helm": 3753,
	"Farseer helm": 3755,
	"Fremennik cyan cloak": 3759,
	"Fremennik brown cloak": 3761,
	"Fremennik blue cloak": 3763,
	"Fremennik green cloak": 3765,
	"Fremennik brown shirt": 3767,
	"Fremennik grey shirt": 3769,
	"Fremennik beige shirt": 3771,
	"Fremennik red shirt": 3773,
	"Fremennik blue shirt": 3775,
	"Fremennik red cloak": 3777,
	"Fremennik grey cloak": 3779,
	"Fremennik yellow cloak": 3781,
	"Fremennik teal cloak": 3783,
	"Fremennik purple cloak": 3785,
	"Fremennik pink cloak": 3787,
	"Fremennik black cloak": 3789,
	"Fremennik boots": 3791,
	"Fremennik robe": 3793,
	"Fremennik skirt": 3795,
	"Fremennik hat": 3797,
	"Fremennik gloves": 3799,
	"Keg of beer": 3801,
	"Beer tankard": 3803,
	"Saradomin page 1": 3827,
	"Saradomin page 2": 3828,
	"Saradomin page 3": 3829,
	"Saradomin page 4": 3830,
	"Zamorak page 1": 3831,
	"Zamorak page 2": 3832,
	"Zamorak page 3": 3833,
	"Zamorak page 4": 3834,
	"Guthix page 1": 3835,
	"Guthix page 2": 3836,
	"Guthix page 3": 3837,
	"Guthix page 4": 3838,
	"Games necklace(8)": 3853,
	"Monkey nuts": 4012,
	"Monkey bar": 4014,
	"Banana stew": 4016,
	"Dragon platelegs": 4087,
	"Mystic hat": 4089,
	"Mystic robe top": 4091,
	"Mystic robe bottom": 4093,
	"Mystic gloves": 4095,
	"Mystic boots": 4097,
	"Mystic hat (dark)": 4099,
	"Mystic robe top (dark)": 4101,
	"Mystic robe bottom (dark)": 4103,
	"Mystic gloves (dark)": 4105,
	"Mystic boots (dark)": 4107,
	"Mystic hat (light)": 4109,
	"Mystic robe top (light)": 4111,
	"Mystic robe bottom (light)": 4113,
	"Mystic gloves (light)": 4115,
	"Mystic boots (light)": 4117,
	"Bronze boots": 4119,
	"Iron boots": 4121,
	"Steel boots": 4123,
	"Black boots": 4125,
	"Mithril boots": 4127,
	"Adamant boots": 4129,
	"Rune boots": 4131,
	"Abyssal whip": 4151,
	"Granite maul": 4153,
	"Mirror shield": 4156,
	"Bag of salt": 4161,
	"Rock hammer": 4162,
	"Facemask": 4164,
	"Earmuffs": 4166,
	"Nose peg": 4168,
	"Slayer's staff": 4170,
	"Crystal seed": 4207,
	"New crystal bow": 4212,
	"New crystal shield": 4224,
	"Ham shirt": 4298,
	"Ham robe": 4300,
	"Ham hood": 4302,
	"Ham cloak": 4304,
	"Ham logo": 4306,
	"Ham gloves": 4308,
	"Ham boots": 4310,
	"Team-1 cape": 4315,
	"Team-2 cape": 4317,
	"Team-3 cape": 4319,
	"Team-4 cape": 4321,
	"Team-5 cape": 4323,
	"Team-6 cape": 4325,
	"Team-7 cape": 4327,
	"Team-8 cape": 4329,
	"Team-9 cape": 4331,
	"Team-10 cape": 4333,
	"Team-11 cape": 4335,
	"Team-12 cape": 4337,
	"Team-13 cape": 4339,
	"Team-14 cape": 4341,
	"Team-15 cape": 4343,
	"Team-16 cape": 4345,
	"Team-17 cape": 4347,
	"Team-18 cape": 4349,
	"Team-19 cape": 4351,
	"Team-20 cape": 4353,
	"Team-21 cape": 4355,
	"Team-22 cape": 4357,
	"Team-23 cape": 4359,
	"Team-24 cape": 4361,
	"Team-25 cape": 4363,
	"Team-26 cape": 4365,
	"Team-27 cape": 4367,
	"Team-28 cape": 4369,
	"Team-29 cape": 4371,
	"Team-30 cape": 4373,
	"Team-31 cape": 4375,
	"Team-32 cape": 4377,
	"Team-33 cape": 4379,
	"Team-34 cape": 4381,
	"Team-35 cape": 4383,
	"Team-36 cape": 4385,
	"Team-37 cape": 4387,
	"Team-38 cape": 4389,
	"Team-39 cape": 4391,
	"Team-40 cape": 4393,
	"Team-41 cape": 4395,
	"Team-42 cape": 4397,
	"Team-43 cape": 4399,
	"Team-44 cape": 4401,
	"Team-45 cape": 4403,
	"Team-46 cape": 4405,
	"Team-47 cape": 4407,
	"Team-48 cape": 4409,
	"Team-49 cape": 4411,
	"Team-50 cape": 4413,
	"Guthix rest(4)": 4417,
	"Guthix rest(3)": 4419,
	"Guthix rest(2)": 4421,
	"Guthix rest(1)": 4423,
	"Airtight pot": 4436,
	"Unfired pot lid": 4438,
	"Pot lid": 4440,
	"Bowl of hot water": 4456,
	"Cup of water": 4458,
	"Cup of hot water": 4460,
	"Giant frog legs": 4517,
	"Oil lamp": 4522,
	"Empty oil lamp": 4525,
	"Empty candle lantern": 4527,
	"Candle lantern": 4532,
	"Empty oil lantern": 4535,
	"Oil lantern": 4537,
	"Oil lantern frame": 4540,
	"Lantern lens": 4542,
	"Bullseye lantern (unf)": 4544,
	"Bullseye lantern (empty)": 4546,
	"Bullseye lantern": 4548,
	"Spiny helmet": 4551,
	"Black spear": 4580,
	"Black spear(p)": 4582,
	"Dragon plateskirt": 4585,
	"Dragon scimitar": 4587,
	"Kharidian headpiece": 4591,
	"Fake beard": 4593,
	"Karidian disguise": 4595,
	"Willow blackjack": 4600,
	"Super kebab": 4608,
	"Bandit's brew": 4627,
	"Garlic powder": 4668,
	"Ancient staff": 4675,
	"Linen": 4684,
	"Bucket of sap": 4687,
	"Pile of salt": 4689,
	"Steam rune": 4694,
	"Mist rune": 4695,
	"Dust rune": 4696,
	"Smoke rune": 4697,
	"Mud rune": 4698,
	"Lava rune": 4699,
	"Ahrim's hood": 4708,
	"Ahrim's staff": 4710,
	"Ahrim's robetop": 4712,
	"Ahrim's robeskirt": 4714,
	"Dharok's helm": 4716,
	"Dharok's greataxe": 4718,
	"Dharok's platebody": 4720,
	"Dharok's platelegs": 4722,
	"Guthan's helm": 4724,
	"Guthan's warspear": 4726,
	"Guthan's platebody": 4728,
	"Guthan's chainskirt": 4730,
	"Karil's coif": 4732,
	"Karil's crossbow": 4734,
	"Karil's leathertop": 4736,
	"Karil's leatherskirt": 4738,
	"Bolt rack": 4740,
	"Torag's helm": 4745,
	"Torag's hammers": 4747,
	"Torag's platebody": 4749,
	"Torag's platelegs": 4751,
	"Verac's helm": 4753,
	"Verac's flail": 4755,
	"Verac's brassard": 4757,
	"Verac's plateskirt": 4759,
	"Bronze brutal": 4773,
	"Iron brutal": 4778,
	"Steel brutal": 4783,
	"Black brutal": 4788,
	"Mithril brutal": 4793,
	"Adamant brutal": 4798,
	"Rune brutal": 4803,
	"Zogre bones": 4812,
	"Bronze nails": 4819,
	"Iron nails": 4820,
	"Black nails": 4821,
	"Mithril nails": 4822,
	"Adamantite nails": 4823,
	"Rune nails": 4824,
	"Unstrung comp bow": 4825,
	"Comp ogre bow": 4827,
	"Fayrg bones": 4830,
	"Raurg bones": 4832,
	"Ourg bones": 4834,
	"Relicym's balm(4)": 4842,
	"Relicym's balm(3)": 4844,
	"Relicym's balm(2)": 4846,
	"Relicym's balm(1)": 4848,
	"Ogre coffin key": 4850,
	"Ahrim's hood 0": 4860,
	"Ahrim's staff 0": 4866,
	"Ahrim's robetop 0": 4872,
	"Ahrim's robeskirt 0": 4878,
	"Dharok's helm 0": 4884,
	"Dharok's greataxe 0": 4890,
	"Dharok's platebody 0": 4896,
	"Dharok's platelegs 0": 4902,
	"Guthan's helm 0": 4908,
	"Guthan's warspear 0": 4914,
	"Guthan's platebody 0": 4920,
	"Guthan's chainskirt 0": 4926,
	"Karil's coif 0": 4932,
	"Karil's crossbow 0": 4938,
	"Karil's leathertop 0": 4944,
	"Karil's leatherskirt 0": 4950,
	"Torag's helm 0": 4956,
	"Torag's hammers 0": 4962,
	"Torag's platebody 0": 4968,
	"Torag's platelegs 0": 4974,
	"Verac's helm 0": 4980,
	"Verac's flail 0": 4986,
	"Verac's brassard 0": 4992,
	"Verac's plateskirt 0": 4998,
	"Raw cave eel": 5001,
	"Cave eel": 5003,
	"Mining helmet": 5014,
	"Bone spear": 5016,
	"Bone club": 5018,
	"Woven top": 5028,
	"Shirt": 5034,
	"Trousers": 5040,
	"Shorts": 5046,
	"Skirt": 5052,
	"Marigold seed": 5096,
	"Rosemary seed": 5097,
	"Nasturtium seed": 5098,
	"Woad seed": 5099,
	"Limpwurt seed": 5100,
	"Redberry seed": 5101,
	"Cadavaberry seed": 5102,
	"Dwellberry seed": 5103,
	"Jangerberry seed": 5104,
	"Whiteberry seed": 5105,
	"Poison ivy seed": 5106,
	"Cactus seed": 5280,
	"Belladonna seed": 5281,
	"Mushroom spore": 5282,
	"Apple tree seed": 5283,
	"Banana tree seed": 5284,
	"Orange tree seed": 5285,
	"Curry tree seed": 5286,
	"Pineapple seed": 5287,
	"Papaya tree seed": 5288,
	"Palm tree seed": 5289,
	"Calquat tree seed": 5290,
	"Guam seed": 5291,
	"Marrentill seed": 5292,
	"Tarromin seed": 5293,
	"Harralander seed": 5294,
	"Ranarr seed": 5295,
	"Toadflax seed": 5296,
	"Irit seed": 5297,
	"Avantoe seed": 5298,
	"Kwuarm seed": 5299,
	"Snapdragon seed": 5300,
	"Cadantine seed": 5301,
	"Lantadyme seed": 5302,
	"Dwarf weed seed": 5303,
	"Torstol seed": 5304,
	"Barley seed": 5305,
	"Jute seed": 5306,
	"Hammerstone seed": 5307,
	"Asgarnian seed": 5308,
	"Yanillian seed": 5309,
	"Krandorian seed": 5310,
	"Wildblood seed": 5311,
	"Acorn": 5312,
	"Willow seed": 5313,
	"Maple seed": 5314,
	"Yew seed": 5315,
	"Magic seed": 5316,
	"Potato seed": 5318,
	"Onion seed": 5319,
	"Sweetcorn seed": 5320,
	"Watermelon seed": 5321,
	"Tomato seed": 5322,
	"Strawberry seed": 5323,
	"Cabbage seed": 5324,
	"Gardening trowel": 5325,
	"Secateurs": 5329,
	"Watering can": 5331,
	"Rake": 5341,
	"Seed dibber": 5343,
	"Gardening boots": 5345,
	"Empty plant pot": 5350,
	"Unfired plant pot": 5352,
	"Filled plant pot": 5354,
	"Oak sapling": 5370,
	"Willow sapling": 5371,
	"Maple sapling": 5372,
	"Yew sapling": 5373,
	"Magic sapling": 5374,
	"Basket": 5376,
	"Apples(5)": 5386,
	"Oranges(5)": 5396,
	"Strawberries(5)": 5406,
	"Bananas(5)": 5416,
	"Empty sack": 5418,
	"Potatoes(10)": 5438,
	"Onions(10)": 5458,
	"Cabbages(10)": 5478,
	"Apple sapling": 5496,
	"Banana sapling": 5497,
	"Orange sapling": 5498,
	"Curry sapling": 5499,
	"Pineapple sapling": 5500,
	"Papaya sapling": 5501,
	"Palm sapling": 5502,
	"Calquat sapling": 5503,
	"Strawberry": 5504,
	"Elemental talisman": 5516,
	"Binding necklace": 5521,
	"Tiara mould": 5523,
	"Tiara": 5525,
	"Air tiara": 5527,
	"Mind tiara": 5529,
	"Water tiara": 5531,
	"Body tiara": 5533,
	"Earth tiara": 5535,
	"Fire tiara": 5537,
	"Cosmic tiara": 5539,
	"Nature tiara": 5541,
	"Chaos tiara": 5543,
	"Death tiara": 5547,
	"Initiate sallet": 5574,
	"Initiate hauberk": 5575,
	"Initiate cuisse": 5576,
	"Bronze arrow(p+)": 5616,
	"Iron arrow(p+)": 5617,
	"Steel arrow(p+)": 5618,
	"Mithril arrow(p+)": 5619,
	"Adamant arrow(p+)": 5620,
	"Rune arrow(p+)": 5621,
	"Bronze arrow(p++)": 5622,
	"Iron arrow(p++)": 5623,
	"Steel arrow(p++)": 5624,
	"Mithril arrow(p++)": 5625,
	"Adamant arrow(p++)": 5626,
	"Rune arrow(p++)": 5627,
	"Bronze dart(p+)": 5628,
	"Iron dart(p+)": 5629,
	"Steel dart(p+)": 5630,
	"Black dart(p+)": 5631,
	"Mithril dart(p+)": 5632,
	"Adamant dart(p+)": 5633,
	"Rune dart(p+)": 5634,
	"Bronze dart(p++)": 5635,
	"Iron dart(p++)": 5636,
	"Steel dart(p++)": 5637,
	"Black dart(p++)": 5638,
	"Mithril dart(p++)": 5639,
	"Adamant dart(p++)": 5640,
	"Rune dart(p++)": 5641,
	"Bronze javelin(p+)": 5642,
	"Iron javelin(p+)": 5643,
	"Steel javelin(p+)": 5644,
	"Mithril javelin(p+)": 5645,
	"Adamant javelin(p+)": 5646,
	"Rune javelin(p+)": 5647,
	"Bronze javelin(p++)": 5648,
	"Iron javelin(p++)": 5649,
	"Steel javelin(p++)": 5650,
	"Mithril javelin(p++)": 5651,
	"Adamant javelin(p++)": 5652,
	"Rune javelin(p++)": 5653,
	"Bronze knife(p+)": 5654,
	"Iron knife(p+)": 5655,
	"Steel knife(p+)": 5656,
	"Mithril knife(p+)": 5657,
	"Black knife(p+)": 5658,
	"Adamant knife(p+)": 5659,
	"Rune knife(p+)": 5660,
	"Bronze knife(p++)": 5661,
	"Iron knife(p++)": 5662,
	"Steel knife(p++)": 5663,
	"Mithril knife(p++)": 5664,
	"Black knife(p++)": 5665,
	"Adamant knife(p++)": 5666,
	"Rune knife(p++)": 5667,
	"Iron dagger(p+)": 5668,
	"Bronze dagger(p+)": 5670,
	"Steel dagger(p+)": 5672,
	"Mithril dagger(p+)": 5674,
	"Adamant dagger(p+)": 5676,
	"Rune dagger(p+)": 5678,
	"Dragon dagger(p+)": 5680,
	"Black dagger(p+)": 5682,
	"Iron dagger(p++)": 5686,
	"Bronze dagger(p++)": 5688,
	"Steel dagger(p++)": 5690,
	"Mithril dagger(p++)": 5692,
	"Adamant dagger(p++)": 5694,
	"Rune dagger(p++)": 5696,
	"Dragon dagger(p++)": 5698,
	"Black dagger(p++)": 5700,
	"Bronze spear(p+)": 5704,
	"Iron spear(p+)": 5706,
	"Steel spear(p+)": 5708,
	"Mithril spear(p+)": 5710,
	"Adamant spear(p+)": 5712,
	"Rune spear(p+)": 5714,
	"Dragon spear(p+)": 5716,
	"Bronze spear(p++)": 5718,
	"Iron spear(p++)": 5720,
	"Steel spear(p++)": 5722,
	"Mithril spear(p++)": 5724,
	"Adamant spear(p++)": 5726,
	"Rune spear(p++)": 5728,
	"Dragon spear(p++)": 5730,
	"Black spear(p+)": 5734,
	"Black spear(p++)": 5736,
	"Asgarnian ale(m)": 5739,
	"Mature wmb": 5741,
	"Greenman's ale(m)": 5743,
	"Dragon bitter(m)": 5745,
	"Dwarven stout(m)": 5747,
	"Moonlight mead(m)": 5749,
	"Axeman's folly": 5751,
	"Axeman's folly(m)": 5753,
	"Chef's delight": 8526,
	"Chef's delight(m)": 5757,
	"Slayer's respite": 5759,
	"Slayer's respite(m)": 5761,
	"Cider": 5763,
	"Mature cider": 5765,
	"Ale yeast": 5767,
	"Calquat keg": 5769,
	"Dwarven stout(4)": 5777,
	"Asgarnian ale(4)": 5785,
	"Greenmans ale(4)": 5793,
	"Mind bomb(4)": 5801,
	"Dragon bitter(4)": 5809,
	"Moonlight mead(4)": 5817,
	"Axeman's folly(4)": 5825,
	"Chef's delight(4)": 5833,
	"Slayer's respite(4)": 5841,
	"Cider(4)": 5849,
	"Dwarven stout(m4)": 5857,
	"Asgarnian ale(m4)": 5865,
	"Greenmans ale(m4)": 5873,
	"Mind bomb(m4)": 5881,
	"Dragon bitter(m4)": 5889,
	"Moonlight mead(m4)": 5897,
	"Axeman's folly(m4)": 5905,
	"Chef's delight(m4)": 5913,
	"Slayer respite(m4)": 5921,
	"Cider(m4)": 5929,
	"Jute fibre": 5931,
	"Willow branch": 5933,
	"Coconut milk": 5935,
	"Weapon poison(+)": 5937,
	"Weapon poison(++)": 5940,
	"Antidote+(4)": 5943,
	"Antidote+(3)": 5945,
	"Antidote+(2)": 5947,
	"Antidote+(1)": 5949,
	"Antidote++(4)": 5952,
	"Antidote++(3)": 5954,
	"Antidote++(2)": 5956,
	"Antidote++(1)": 5958,
	"Tomatoes(5)": 5968,
	"Curry leaf": 5970,
	"Papaya fruit": 5972,
	"Coconut": 5974,
	"Calquat fruit": 5980,
	"Watermelon": 5982,
	"Watermelon slice": 5984,
	"Sweetcorn": 7088,
	"Cooked sweetcorn": 5988,
	"Apple mush": 5992,
	"Hammerstone hops": 5994,
	"Asgarnian hops": 5996,
	"Yanillian hops": 5998,
	"Krandorian hops": 6000,
	"Wildblood hops": 6002,
	"Mushroom": 6004,
	"Barley": 6006,
	"Barley malt": 6008,
	"Marigolds": 6010,
	"Nasturtiums": 6012,
	"Rosemary": 6014,
	"Cactus spine": 6016,
	"Poison ivy berries": 6018,
	"Compost": 6032,
	"Supercompost": 6034,
	"Plant cure": 6036,
	"Magic string": 6038,
	"Oak roots": 6043,
	"Willow roots": 6045,
	"Maple roots": 6047,
	"Yew roots": 6049,
	"Magic roots": 6051,
	"Weeds": 6055,
	"Bronze bolts(p+)": 6061,
	"Bronze bolts(p++)": 6062,
	"Rock-shell helm": 6128,
	"Rock-shell plate": 6129,
	"Rock-shell legs": 6130,
	"Spined helm": 6131,
	"Spined body": 6133,
	"Spined chaps": 6135,
	"Skeletal helm": 6137,
	"Skeletal top": 6139,
	"Skeletal bottoms": 6141,
	"Spined boots": 6143,
	"Rock-shell boots": 6145,
	"Skeletal boots": 6147,
	"Spined gloves": 6149,
	"Rock-shell gloves": 6151,
	"Skeletal gloves": 6153,
	"Dagannoth hide": 6155,
	"Rock-shell chunk": 6157,
	"Rock-shell shard": 6159,
	"Rock-shell splinter": 6161,
	"Skull piece": 6163,
	"Ribcage piece": 6165,
	"Fibula piece": 6167,
	"Circular hide": 6169,
	"Flattened hide": 6171,
	"Stretched hide": 6173,
	"Teak pyre logs": 6211,
	"Mahogany pyre log": 6213,
	"Broodoo shield (10)": 6259,
	"Broodoo shield": 6279,
	"Thatch spar light": 6281,
	"Thatch spar med": 6283,
	"Thatch spar dense": 6285,
	"Snake hide": 7801,
	"Snakeskin": 6289,
	"Spider carcass": 6291,
	"Spider on stick": 6297,
	"Spider on shaft": 6299,
	"Skewer stick": 6305,
	"Trading sticks": 6306,
	"Gout tuber": 6311,
	"Opal machete": 6313,
	"Jade machete": 6315,
	"Red topaz machete": 6317,
	"Proboscis": 6319,
	"Snakeskin body": 6322,
	"Snakeskin chaps": 6324,
	"Snakeskin bandana": 6326,
	"Snakeskin boots": 6328,
	"Snakeskin vambraces": 6330,
	"Mahogany logs": 6332,
	"Teak logs": 6333,
	"Tribal mask": 6339,
	"Tribal top": 6371,
	"Villager robe": 6373,
	"Villager hat": 6375,
	"Villager armband": 6379,
	"Villager sandals": 6377,
	"Fez": 6382,
	"Desert top": 6388,
	"Desert robes": 6386,
	"Desert legs": 6390,
	"Menaphite purple hat": 6392,
	"Menaphite purple top": 6394,
	"Menaphite purple robe": 6396,
	"Menaphite purple kilt": 6398,
	"Menaphite red hat": 6400,
	"Menaphite red top": 6402,
	"Menaphite red robe": 6404,
	"Menaphite red kilt": 6406,
	"Oak blackjack(o)": 6408,
	"Oak blackjack(d)": 6410,
	"Willow blackjack(o)": 6412,
	"Willow blackjack(d)": 6414,
	"Maple blackjack": 6416,
	"Maple blackjack(o)": 6418,
	"Maple blackjack(d)": 6420,
	"Compost potion(4)": 6470,
	"Compost potion(3)": 6472,
	"Compost potion(2)": 6474,
	"Compost potion(1)": 6476,
	"Toktz-xil-ul": 6522,
	"Toktz-xil-ak": 6523,
	"Toktz-ket-xil": 6524,
	"Toktz-xil-ek": 6525,
	"Toktz-mej-tal": 6526,
	"Tzhaar-ket-em": 6527,
	"Tzhaar-ket-om": 6528,
	"Mud battlestaff": 6562,
	"Mystic mud staff": 6563,
	"Obsidian cape": 6568,
	"Uncut onyx": 6571,
	"Onyx": 6573,
	"Onyx ring": 6575,
	"Onyx necklace": 6577,
	"Onyx amulet (u)": 6579,
	"Onyx amulet": 6581,
	"Ring of stone": 6583,
	"Amulet of fury": 6585,
	"White claws": 6587,
	"White battleaxe": 6589,
	"White dagger": 6591,
	"White dagger(p)": 6593,
	"White dagger(p+)": 6595,
	"White dagger(p++)": 6597,
	"White halberd": 6599,
	"White mace": 6601,
	"White magic staff": 6603,
	"White sword": 6605,
	"White longsword": 6607,
	"White 2h sword": 6609,
	"White scimitar": 6611,
	"White warhammer": 6613,
	"White chainbody": 6615,
	"White platebody": 6617,
	"White boots": 6619,
	"White med helm": 6621,
	"White full helm": 6623,
	"White platelegs": 6625,
	"White plateskirt": 6627,
	"White gloves": 6629,
	"White sq shield": 6631,
	"White kiteshield": 6633,
	"Empty fishbowl": 6667,
	"Ground guam": 6681,
	"Saradomin brew(4)": 6685,
	"Saradomin brew(3)": 6687,
	"Saradomin brew(2)": 6689,
	"Saradomin brew(1)": 6691,
	"Crushed nest": 6693,
	"Pat of butter": 6697,
	"Baked potato": 6701,
	"Potato with butter": 6703,
	"Potato with cheese": 6705,
	"Seercull": 6724,
	"Dagannoth bones": 6729,
	"Seers ring": 6731,
	"Archers ring": 6733,
	"Warrior ring": 6735,
	"Berserker ring": 6737,
	"Dragon axe": 6739,
	"Black desert shirt": 6750,
	"Black desert robe": 6752,
	"Guthix mjolnir": 6760,
	"Saradomin mjolnir": 6762,
	"Zamorak mjolnir": 6764,
	"Choc-ice": 6794,
	"Granite legs": 6809,
	"Wyvern bones": 6812,
	"Fur": 6814,
	"Mage's book": 6889,
	"Arena book": 6891,
	"Beginner wand": 6908,
	"Apprentice wand": 6910,
	"Teacher wand": 6912,
	"Master wand": 6914,
	"Infinity top": 6916,
	"Infinity hat": 6918,
	"Infinity boots": 6920,
	"Infinity gloves": 6922,
	"Infinity bottoms": 6924,
	"Pink cape": 6959,
	"Triangle sandwich": 6962,
	"Sandstone (1kg)": 6971,
	"Sandstone (2kg)": 6973,
	"Sandstone (5kg)": 6975,
	"Sandstone (10kg)": 6977,
	"Granite (500g)": 6979,
	"Granite (2kg)": 6981,
	"Granite (5kg)": 6983,
	"Unlit bug lantern": 7051,
	"Chilli potato": 7054,
	"Egg potato": 7056,
	"Mushroom potato": 7058,
	"Tuna potato": 7060,
	"Chilli con carne": 7062,
	"Egg and tomato": 7064,
	"Mushroom & onion": 7066,
	"Tuna and corn": 7068,
	"Minced meat": 7070,
	"Spicy sauce": 7072,
	"Chopped garlic": 7074,
	"Uncooked egg": 7076,
	"Scrambled egg": 7078,
	"Sliced mushrooms": 7080,
	"Fried mushrooms": 7082,
	"Fried onions": 7084,
	"Chopped tuna": 7086,
	"Stripy pirate shirt": 7134,
	"Pirate bandana": 7136,
	"Pirate boots": 7114,
	"Pirate leggings": 7138,
	"Dragon 2h sword": 7158,
	"Insulated boots": 7159,
	"Pie recipe book": 7162,
	"Raw mud pie": 7168,
	"Mud pie": 7170,
	"Raw garden pie": 7176,
	"Garden pie": 7178,
	"Raw fish pie": 7186,
	"Fish pie": 7188,
	"Raw admiral pie": 7196,
	"Admiral pie": 7198,
	"Raw wild pie": 7206,
	"Wild pie": 7208,
	"Raw summer pie": 7216,
	"Summer pie": 7218,
	"Roast rabbit": 7223,
	"Iron spit": 7225,
	"Red boater": 7319,
	"Orange boater": 7321,
	"Green boater": 7323,
	"Blue boater": 7325,
	"Black boater": 7327,
	"Red firelighter": 7329,
	"Green firelighter": 7330,
	"Blue firelighter": 7331,
	"Black shield (h1)": 7332,
	"Adamant shield (h1)": 7334,
	"Rune shield (h1)": 7336,
	"Black shield (h2)": 7338,
	"Adamant shield (h2)": 7340,
	"Rune shield (h2)": 7342,
	"Black shield (h3)": 7344,
	"Adamant shield (h3)": 7346,
	"Rune shield (h3)": 7348,
	"Black shield (h4)": 7350,
	"Adamant shield (h4)": 7352,
	"Rune shield (h4)": 7354,
	"Black shield (h5)": 7356,
	"Adamant shield (h5)": 7358,
	"Rune shield (h5)": 7360,
	"Studded body (g)": 7362,
	"Studded body (t)": 7364,
	"Studded chaps (g)": 7366,
	"Studded chaps (t)": 7368,
	"Green d'hide body (g)": 7370,
	"Green d'hide body (t)": 7372,
	"Blue d'hide body (g)": 7374,
	"Blue d'hide body (t)": 7376,
	"Green d'hide chaps (g)": 7378,
	"Green d'hide chaps (t)": 7380,
	"Blue d'hide chaps (g)": 7382,
	"Blue d'hide chaps (t)": 7384,
	"Blue skirt (g)": 7386,
	"Blue skirt (t)": 7388,
	"Blue wizard robe (g)": 7390,
	"Blue wizard robe (t)": 7392,
	"Blue wizard hat (g)": 7394,
	"Blue wizard hat (t)": 7396,
	"Enchanted robe": 7398,
	"Enchanted top": 7399,
	"Enchanted hat": 7400,
	"Mole claw": 7416,
	"Mole skin": 7418,
	"Wooden spoon": 7433,
	"Egg whisk": 7435,
	"Spork": 7437,
	"Spatula": 7439,
	"Frying pan": 7441,
	"Skewer": 7443,
	"Rolling pin": 7445,
	"Kitchen knife": 7447,
	"Meat tenderiser": 7449,
	"Cleaver": 7451,
	"Cornflour": 7466,
	"Pot of cornflour": 7468,
	"Cooked crab meat": 7521,
	"Raw jubbly": 7566,
	"Cooked jubbly": 7568,
	"Silver dust": 7650,
	"Guthix balance(4)": 7660,
	"Guthix balance(3)": 7662,
	"Guthix balance(2)": 7664,
	"Guthix balance(1)": 7666,
	"Gadderhammer": 7668,
	"Toy soldier": 7759,
	"Toy soldier (wound)": 7761,
	"Toy doll": 7763,
	"Toy doll (wound)": 7765,
	"Toy mouse": 7767,
	"Toy mouse (wound)": 7769,
	"Toy cat": 7771,
	"Bottle of wine": 7919,
	"Pure essence": 7936,
	"Tortoise shell": 7939,
	"Raw monkfish": 7944,
	"Monkfish": 7946,
	"Varrock teleport": 8007,
	"Lumbridge teleport": 8008,
	"Falador teleport": 8009,
	"Camelot teleport": 8010,
	"Ardougne teleport": 8011,
	"Watchtower teleport": 8012,
	"Teleport to house": 8013,
	"Bones to bananas": 8014,
	"Bones to peaches": 8015,
	"Enchant sapphire": 8016,
	"Enchant emerald": 8017,
	"Enchant ruby": 8018,
	"Enchant diamond": 8019,
	"Enchant dragonstn.": 8020,
	"Enchant onyx": 8021,
	"Bagged dead tree": 8417,
	"Bagged nice tree": 8419,
	"Bagged oak tree": 8421,
	"Bagged willow tree": 8423,
	"Bagged maple tree": 8425,
	"Bagged yew tree": 8427,
	"Bagged magic tree": 8429,
	"Bagged plant 1": 8431,
	"Bagged plant 2": 8433,
	"Bagged plant 3": 8435,
	"Thorny hedge": 8437,
	"Nice hedge": 8439,
	"Small box hedge": 8441,
	"Topiary hedge": 8443,
	"Fancy hedge": 8445,
	"Tall fancy hedge": 8447,
	"Tall box hedge": 8449,
	"Bagged flower": 8451,
	"Bagged daffodils": 8453,
	"Bagged bluebells": 8455,
	"Bagged sunflower": 8457,
	"Bagged marigolds": 8459,
	"Bagged roses": 8461,
	"Crude chair": 8496,
	"Wooden chair": 8498,
	"Rocking chair": 8500,
	"Oak chair": 8502,
	"Oak armchair": 8504,
	"Teak armchair": 8506,
	"Mahogany armchair": 8508,
	"Bookcase": 8510,
	"Oak bookcase": 8512,
	"Mahogany bookcase": 8514,
	"Beer barrel": 8516,
	"Cider barrel": 8518,
	"Kitchen table": 8528,
	"Oak kitchen table": 8530,
	"Teak kitchen table": 8532,
	"Oak lectern": 8534,
	"Eagle lectern": 8536,
	"Demon lectern": 8538,
	"Teak eagle lectern": 8540,
	"Teak demon lectern": 8542,
	"Mahogany eagle": 8544,
	"Mahogany demon": 8546,
	"Wood dining table": 8548,
	"Oak dining table": 8550,
	"Carved oak table": 8552,
	"Teak table": 8554,
	"Carved teak table": 8556,
	"Mahogany table": 8558,
	"Opulent table": 8560,
	"Wooden bench": 8562,
	"Oak bench": 8564,
	"Carved oak bench": 8566,
	"Teak dining bench": 8568,
	"Carved teak bench": 8570,
	"Mahogany bench": 8572,
	"Gilded bench": 8574,
	"Wooden bed": 8576,
	"Oak bed": 8578,
	"Large oak bed": 8580,
	"Teak bed": 8582,
	"Large teak bed": 8584,
	"Four-poster bed": 8586,
	"Gilded four-poster": 8588,
	"Oak clock": 8590,
	"Teak clock": 8592,
	"Gilded clock": 8594,
	"Shaving stand": 8596,
	"Oak shaving stand": 8598,
	"Oak dresser": 8600,
	"Teak dresser": 8602,
	"Fancy teak dresser": 8604,
	"Mahogany dresser": 8606,
	"Gilded dresser": 8608,
	"Shoe box": 8610,
	"Oak drawers": 8612,
	"Oak wardrobe": 8614,
	"Teak drawers": 8616,
	"Teak wardrobe": 8618,
	"Mahogany wardrobe": 8620,
	"Gilded wardrobe": 8622,
	"Crystal ball": 8624,
	"Elemental sphere": 8626,
	"Crystal of power": 8628,
	"Globe": 8630,
	"Ornamental globe": 8632,
	"Lunar globe": 8634,
	"Celestial globe": 8636,
	"Armillary sphere": 8638,
	"Small orrery": 8640,
	"Large orrery": 8642,
	"Wooden telescope": 8644,
	"Teak telescope": 8646,
	"Mahogany telescope": 8648,
	"Oak plank": 8778,
	"Teak plank": 8780,
	"Mahogany plank": 8782,
	"Gold leaf": 8784,
	"Marble block": 8786,
	"Magic stone": 8788,
	"Bolt of cloth": 8790,
	"Clockwork": 8792,
	"Saw": 8794,
	"Timber beam": 8837,
	"Bone dagger": 8872,
	"Bone dagger (p)": 8874,
	"Bone dagger (p+)": 8876,
	"Bone dagger (p++)": 8878,
	"Dorgeshuun crossbow": 8880,
	"Bone bolts": 8882,
	"Black mask (10)": 8901,
	"Black mask": 8921,
	"Bandana eyepatch": 8927,
	"Hat eyepatch": 8928,
	"Security book": 9003,
	"Stronghold notes": 9004,
	"Ivory comb": 9026,
	"Golden scarab": 9028,
	"Stone scarab": 9030,
	"Pottery scarab": 9032,
	"Golden statuette": 9034,
	"Pottery statuette": 9036,
	"Stone statuette": 9038,
	"Gold seal": 9040,
	"Stone seal": 9042,
	"Pharaoh's sceptre (3)": 9044,
	"Pharaoh's sceptre": 9050,
	"Locust meat": 9052,
	"Astral rune": 9075,
	"Iron bolts": 9140,
	"Steel bolts": 9141,
	"Mithril bolts": 9142,
	"Adamant bolts": 9143,
	"Runite bolts": 9144,
	"Silver bolts": 9145,
	"Bronze crossbow": 9174,
	"Iron crossbow": 9177,
	"Steel crossbow": 9179,
	"Mith crossbow": 9181,
	"Adamant crossbow": 9183,
	"Rune crossbow": 9185,
	"Jade bolt tips": 9187,
	"Topaz bolt tips": 9188,
	"Sapphire bolt tips": 9189,
	"Emerald bolt tips": 9190,
	"Ruby bolt tips": 9191,
	"Diamond bolt tips": 9192,
	"Dragon bolt tips": 9193,
	"Onyx bolt tips": 9194,
	"Opal bolts (e)": 9236,
	"Pearl bolts (e)": 9238,
	"Topaz bolts (e)": 9239,
	"Sapphire bolts (e)": 9240,
	"Emerald bolts (e)": 9241,
	"Ruby bolts (e)": 9242,
	"Diamond bolts (e)": 9243,
	"Dragon bolts (e)": 9244,
	"Onyx bolts (e)": 9245,
	"Iron bolts (p)": 9287,
	"Steel bolts (p)": 9288,
	"Mithril bolts (p)": 9289,
	"Adamant bolts (p)": 9290,
	"Runite bolts (p)": 9291,
	"Silver bolts (p)": 9292,
	"Iron bolts(p+)": 9294,
	"Steel bolts(p+)": 9295,
	"Mithril bolts(p+)": 9296,
	"Adamant bolts(p+)": 9297,
	"Runite bolts(p+)": 9298,
	"Silver bolts(p+)": 9299,
	"Iron bolts(p++)": 9301,
	"Steel bolts(p++)": 9302,
	"Mithril bolts(p++)": 9303,
	"Adamant bolts(p++)": 9304,
	"Runite bolts(p++)": 9305,
	"Silver bolts(p++)": 9306,
	"Topaz bolts": 9336,
	"Sapphire bolts": 9337,
	"Emerald bolts": 9338,
	"Ruby bolts": 9339,
	"Diamond bolts": 9340,
	"Dragon bolts": 9341,
	"Onyx bolts": 9342,
	"Bronze bolts (unf)": 9375,
	"Iron bolts (unf)": 9377,
	"Steel bolts (unf)": 9378,
	"Mithril bolts (unf)": 9379,
	"Adamant bolts(unf)": 9380,
	"Runite bolts (unf)": 9381,
	"Silver bolts (unf)": 9382,
	"Mith grapple tip": 9416,
	"Mith grapple": 9419,
	"Bronze limbs": 9420,
	"Iron limbs": 9423,
	"Steel limbs": 9425,
	"Mithril limbs": 9427,
	"Adamantite limbs": 9429,
	"Runite limbs": 9431,
	"Bolt mould": 9434,
	"Sinew": 9436,
	"Crossbow string": 9438,
	"Wooden stock": 9440,
	"Oak stock": 9442,
	"Willow stock": 9444,
	"Teak stock": 9446,
	"Maple stock": 9448,
	"Mahogany stock": 9450,
	"Yew stock": 9452,
	"Bronze crossbow (u)": 9454,
	"Iron crossbow (u)": 9457,
	"Steel crossbow (u)": 9459,
	"Mithril crossbow (u)": 9461,
	"Adamant crossbow (u)": 9463,
	"Runite crossbow (u)": 9465,
	"Grand seed pod": 9469,
	"Gnome scarf": 9470,
	"Gnome goggles": 9472,
	"Mint cake": 9475,
	"Tyras helm": 9629,
	"Vyrewatch top": 9634,
	"Vyrewatch legs": 9636,
	"Vyrewatch shoes": 9638,
	"Citizen top": 9640,
	"Citizen trousers": 9642,
	"Citizen shoes": 9644,
	"Proselyte harness m": 9666,
	"Initiate harness m": 9668,
	"Proselyte harness f": 9670,
	"Proselyte sallet": 9672,
	"Proselyte hauberk": 9674,
	"Proselyte cuisse": 9676,
	"Proselyte tasset": 9678,
	"Elemental helmet": 9729,
	"Mind shield": 9731,
	"Mind helmet": 9733,
	"Desert goat horn": 9735,
	"Goat horn dust": 9736,
	"Combat potion(4)": 9739,
	"Combat potion(3)": 9741,
	"Combat potion(2)": 9743,
	"Combat potion(1)": 9745,
	"Oak cape rack": 9843,
	"Teak cape rack": 9844,
	"Mahogany cape rack": 9845,
	"Gilded cape rack": 9846,
	"Marble cape rack": 9847,
	"Magic cape rack": 9848,
	"Oak toy box": 9849,
	"Teak toy box": 9850,
	"Mahogany toy box": 9851,
	"Oak magic wardrobe": 9852,
	"Carved oak magic wardrobe": 9853,
	"Teak magic wardrobe": 9854,
	"Carved teak magic wardrobe": 9855,
	"Mahogany magic wardrobe": 9856,
	"Gilded magic wardrobe": 9857,
	"Marble magic wardrobe": 9858,
	"Oak armour case": 9859,
	"Teak armour case": 9860,
	"Mahogany armour case": 9861,
	"Oak treasure chest": 9862,
	"Teak treasure chest": 9863,
	"M. treasure chest": 9864,
	"Oak fancy dress box": 9865,
	"Teak fancy dress box": 9866,
	"Mahogany fancy dress box": 9867,
	"Raw bird meat": 9978,
	"Roast bird meat": 9980,
	"Raw beast meat": 9986,
	"Roast beast meat": 9988,
	"Spicy tomato": 9994,
	"Spicy minced meat": 9996,
	"Hunter potion(4)": 9998,
	"Hunter potion(3)": 10000,
	"Hunter potion(2)": 10002,
	"Hunter potion(1)": 10004,
	"Bird snare": 10006,
	"Box trap": 10008,
	"Butterfly net": 10010,
	"Butterfly jar": 10012,
	"Black warlock": 10014,
	"Snowy knight": 10016,
	"Sapphire glacialis": 10018,
	"Ruby harvest": 10020,
	"Magic box": 10025,
	"Teasing stick": 10029,
	"Rabbit snare": 10031,
	"Chinchompa": 10033,
	"Red chinchompa": 10034,
	"Kyatt legs": 10035,
	"Kyatt top": 10037,
	"Kyatt hat": 10039,
	"Larupia legs": 10041,
	"Larupia top": 10043,
	"Larupia hat": 10045,
	"Graahk legs": 10047,
	"Graahk top": 10049,
	"Graahk headdress": 10051,
	"Wood camo top": 10053,
	"Wood camo legs": 10055,
	"Jungle camo top": 10057,
	"Jungle camo legs": 10059,
	"Desert camo top": 10061,
	"Desert camo legs": 10063,
	"Polar camo top": 10065,
	"Polar camo legs": 10067,
	"Spotted cape": 10069,
	"Spottier cape": 10071,
	"Gloves of silence": 10075,
	"Spiky vambraces": 10077,
	"Green spiky vambs": 10079,
	"Blue spiky vambs": 10081,
	"Red spiky vambs": 10083,
	"Black spiky vambs": 10085,
	"Stripy feather": 10087,
	"Red feather": 10088,
	"Blue feather": 10089,
	"Yellow feather": 10090,
	"Orange feather": 10091,
	"Tatty larupia fur": 10093,
	"Larupia fur": 10095,
	"Tatty graahk fur": 10097,
	"Graahk fur": 10099,
	"Tatty kyatt fur": 10101,
	"Kyatt fur": 10103,
	"Kebbit spike": 10105,
	"Long kebbit spike": 10107,
	"Kebbit teeth": 10109,
	"Kebbit teeth dust": 10111,
	"Kebbit claws": 10113,
	"Dark kebbit fur": 10115,
	"Polar kebbit fur": 10117,
	"Feldip weasel fur": 10119,
	"Common kebbit fur": 10121,
	"Desert devil fur": 10123,
	"Spotted kebbit fur": 10125,
	"Dashing kebbit fur": 10127,
	"Barb-tail harpoon": 10129,
	"Strung rabbit foot": 10132,
	"Rabbit foot": 10134,
	"Rainbow fish": 10136,
	"Raw rainbow fish": 10138,
	"Guam tar": 10142,
	"Marrentill tar": 10143,
	"Tarromin tar": 10144,
	"Harralander tar": 10145,
	"Orange salamander": 10146,
	"Red salamander": 10147,
	"Black salamander": 10148,
	"Swamp lizard": 10149,
	"Noose wand": 10150,
	"Hunters' crossbow": 10156,
	"Kebbit bolts": 10158,
	"Long kebbit bolts": 10159,
	"Willow comp bow": 10280,
	"Yew comp bow": 10282,
	"Magic comp bow": 10284,
	"Rune helm (h1)": 10286,
	"Rune helm (h2)": 10288,
	"Rune helm (h3)": 10290,
	"Rune helm (h4)": 10292,
	"Rune helm (h5)": 10294,
	"Adamant helm (h1)": 10296,
	"Adamant helm (h2)": 10298,
	"Adamant helm (h3)": 10300,
	"Adamant helm (h4)": 10302,
	"Adamant helm (h5)": 10304,
	"Black helm (h1)": 10306,
	"Black helm (h2)": 10308,
	"Black helm (h3)": 10310,
	"Black helm (h4)": 10312,
	"Black helm (h5)": 10314,
	"Bob's red shirt": 10316,
	"Bob's blue shirt": 10318,
	"Bob's green shirt": 10320,
	"Bob's black shirt": 10322,
	"Bob's purple shirt": 10324,
	"Purple firelighter": 10326,
	"White firelighter": 10327,
	"3rd age range top": 10330,
	"3rd age range legs": 10332,
	"3rd age range coif": 10334,
	"3rd age vambraces": 10336,
	"3rd age robe top": 10338,
	"3rd age robe": 10340,
	"3rd age mage hat": 10342,
	"3rd age amulet": 10344,
	"3rd age platelegs": 10346,
	"3rd age platebody": 10348,
	"3rd age full helmet": 10350,
	"3rd age kiteshield": 10352,
	"Amulet of glory (t4)": 10354,
	"Amulet of glory (t)": 10362,
	"Strength amulet (t)": 10364,
	"Amulet of magic (t)": 10366,
	"Zamorak bracers": 10368,
	"Zamorak d'hide": 10370,
	"Zamorak chaps": 10372,
	"Zamorak coif": 10374,
	"Guthix bracers": 10376,
	"Guthix dragonhide": 10378,
	"Guthix chaps": 10380,
	"Guthix coif": 10382,
	"Saradomin bracers": 10384,
	"Saradomin d'hide": 10386,
	"Saradomin chaps": 10388,
	"Saradomin coif": 10390,
	"A powdered wig": 10392,
	"Flared trousers": 10394,
	"Pantaloons": 10396,
	"Sleeping cap": 10398,
	"Black elegant shirt": 10400,
	"Black elegant legs": 10402,
	"Red elegant shirt": 10404,
	"Red elegant legs": 10406,
	"Blue elegant shirt": 10408,
	"Blue elegant legs": 10410,
	"Green elegant shirt": 10412,
	"Green elegant legs": 10414,
	"Purple elegant shirt": 10416,
	"Purple elegant legs": 10418,
	"White elegant blouse": 10420,
	"White elegant skirt": 10422,
	"Red elegant blouse": 10424,
	"Red elegant skirt": 10426,
	"Blue elegant blouse": 10428,
	"Blue elegant skirt": 10430,
	"Green elegant blouse": 10432,
	"Green elegant skirt": 10434,
	"Purple elegant blouse": 10436,
	"Purple elegant skirt": 10438,
	"Saradomin crozier": 10440,
	"Guthix crozier": 10442,
	"Zamorak crozier": 10444,
	"Saradomin cloak": 10446,
	"Guthix cloak": 10448,
	"Zamorak cloak": 10450,
	"Saradomin mitre": 10452,
	"Guthix mitre": 10454,
	"Zamorak mitre": 10456,
	"Saradomin robe top": 10458,
	"Zamorak robe top": 10460,
	"Guthix robe top": 10462,
	"Saradomin robe legs": 10464,
	"Guthix robe legs": 10466,
	"Zamorak robe legs": 10468,
	"Saradomin stole": 10470,
	"Guthix stole": 10472,
	"Zamorak stole": 10474,
	"Purple sweets": 10476,
	"Polished buttons": 10496,
	"Granite body": 10564,
	"Granite helm": 10589,
	"Arctic pyre logs": 10808,
	"Arctic pine logs": 10810,
	"Split log": 10812,
	"Hair": 10814,
	"Raw yak meat": 10816,
	"Yak-hide": 10818,
	"Cured yak-hide": 10820,
	"Yak-hide armour": 10824,
	"Fremennik shield": 10826,
	"Helm of neitiznot": 10828,
	"Wooden cat": 10891,
	"Sanfew serum(4)": 10925,
	"Sanfew serum(3)": 10927,
	"Sanfew serum(2)": 10929,
	"Sanfew serum(1)": 10931,
	"Nail beast nails": 10937,
	"Slayer bell": 10952,
	"Frog-leather body": 10954,
	"Frog-leather chaps": 10956,
	"Frog-leather boots": 10958,
	"Light orb": 10973,
	"Swamp weed": 10978,
	"Cave goblin wire": 10981,
	"Goblin book": 10999,
	"Brine sabre": 11037,
	"Ancient mace": 11061,
	"Bracelet mould": 11065,
	"Gold bracelet": 11069,
	"Sapphire bracelet": 11072,
	"Bracelet of clay": 11074,
	"Emerald bracelet": 11076,
	"Castle wars bracelet(3)": 11079,
	"Ruby bracelet": 11085,
	"Inoculation bracelet": 11088,
	"Phoenix necklace": 11090,
	"Diamond bracelet": 11092,
	"Abyssal bracelet(5)": 11095,
	"Skills necklace(4)": 11105,
	"Skills necklace(3)": 11105,
	"Skills necklace(2)": 11105,
	"Skills necklace(1)": 11105,
	"Skills necklace": 11105,
	"Dragonstone bracelet": 11115,
	"Combat bracelet(4)": 11118,
	"Combat bracelet": 11126,
	"Berserker necklace": 11128,
	"Onyx bracelet": 11130,
	"Regen bracelet": 11133,
	"Dwarven helmet": 11200,
	"Shrunk ogleroot": 11205,
	"Dragon arrow": 11212,
	"Dragon arrow(p)": 11227,
	"Dragon arrow(p+)": 11228,
	"Dragon arrow(p++)": 11229,
	"Dragon dart": 11230,
	"Dragon dart(p)": 11231,
	"Dragon dart tip": 11232,
	"Dragon dart(p+)": 11233,
	"Dragon dart(p++)": 11234,
	"Dark bow": 11235,
	"Dragon arrowtips": 11237,
	"Baby impling jar": 11238,
	"Young impling jar": 11240,
	"Gourmet impling jar": 11242,
	"Earth impling jar": 11244,
	"Essence impling jar": 11246,
	"Eclectic impling jar": 11248,
	"Nature impling jar": 11250,
	"Magpie impling jar": 11252,
	"Ninja impling jar": 11254,
	"Dragon impling jar": 11256,
	"Impling jar": 11260,
	"Cavalier mask": 11280,
	"Dragonfire shield": 11284,
	"Draconic visage": 11286,
	"Roe": 11324,
	"Caviar": 11326,
	"Leaping trout": 11328,
	"Leaping salmon": 11330,
	"Leaping sturgeon": 11332,
	"Fish offcuts": 11334,
	"Dragon full helm": 11335,
	"Bronze hasta": 11367,
	"Iron hasta": 11369,
	"Steel hasta": 11371,
	"Mithril hasta": 11373,
	"Adamant hasta": 11375,
	"Rune hasta": 11377,
	"Bronze hasta(p)": 11379,
	"Bronze hasta(p+)": 11382,
	"Bronze hasta(p++)": 11384,
	"Iron hasta(p)": 11386,
	"Iron hasta(p+)": 11389,
	"Iron hasta(p++)": 11391,
	"Steel hasta(p)": 11393,
	"Steel hasta(p+)": 11396,
	"Steel hasta(p++)": 11398,
	"Mithril hasta(p)": 11400,
	"Mithril hasta(p+)": 11403,
	"Mithril hasta(p++)": 11405,
	"Adamant hasta(p)": 11407,
	"Adamant hasta(p+)": 11410,
	"Adamant hasta(p++)": 11412,
	"Rune hasta(p)": 11414,
	"Rune hasta(p+)": 11417,
	"Rune hasta(p++)": 11419,
	"Attack mix(2)": 11429,
	"Attack mix(1)": 11431,
	"Antipoison mix(2)": 11433,
	"Antipoison mix(1)": 11435,
	"Relicym's mix(2)": 11437,
	"Relicym's mix(1)": 11439,
	"Strength mix(1)": 11441,
	"Strength mix(2)": 11443,
	"Combat mix(2)": 11445,
	"Combat mix(1)": 11447,
	"Restore mix(2)": 11449,
	"Restore mix(1)": 11451,
	"Energy mix(2)": 11453,
	"Energy mix(1)": 11455,
	"Defence mix(2)": 11457,
	"Defence mix(1)": 11459,
	"Agility mix(2)": 11461,
	"Agility mix(1)": 11463,
	"Prayer mix(2)": 11465,
	"Prayer mix(1)": 11467,
	"Superattack mix(2)": 11469,
	"Superattack mix(1)": 11471,
	"Anti-poison supermix(2)": 11473,
	"Anti-poison supermix(1)": 11475,
	"Fishing mix(2)": 11477,
	"Fishing mix(1)": 11479,
	"Super energy mix(2)": 11481,
	"Super energy mix(1)": 11483,
	"Super str. mix(2)": 11485,
	"Super str. mix(1)": 11487,
	"Magic essence mix(2)": 11489,
	"Magic essence mix(1)": 11491,
	"Super restore mix(2)": 11493,
	"Super restore mix(1)": 11495,
	"Super def. mix(2)": 11497,
	"Super def. mix(1)": 11499,
	"Antidote+ mix(2)": 11501,
	"Antidote+ mix(1)": 11503,
	"Antifire mix(2)": 11505,
	"Antifire mix(1)": 11507,
	"Ranging mix(2)": 11509,
	"Ranging mix(1)": 11511,
	"Magic mix(2)": 11513,
	"Magic mix(1)": 11515,
	"Hunting mix(2)": 11517,
	"Hunting mix(1)": 11519,
	"Zamorak mix(2)": 11521,
	"Zamorak mix(1)": 11523,
	"Armadyl crossbow": 11785,
	"Steam battlestaff": 11787,
	"Mystic steam staff": 11789,
	"Staff of the dead": 11791,
	"Godsword blade": 11798,
	"Armadyl godsword": 11802,
	"Bandos godsword": 11804,
	"Saradomin godsword": 11806,
	"Zamorak godsword": 11808,
	"Armadyl hilt": 11810,
	"Bandos hilt": 11812,
	"Saradomin hilt": 11814,
	"Zamorak hilt": 11816,
	"Godsword shard 1": 11818,
	"Godsword shard 2": 11820,
	"Godsword shard 3": 11822,
	"Zamorakian spear": 11824,
	"Armadyl helmet": 11826,
	"Armadyl chestplate": 11828,
	"Armadyl chainskirt": 11830,
	"Bandos chestplate": 11832,
	"Bandos tassets": 11834,
	"Bandos boots": 11836,
	"Saradomin sword": 11838,
	"Dragon boots": 11840,
	"Broad arrowheads": 11874,
	"Broad bolts": 11875,
	"Unfinished broad bolts": 11876,
	"Zamorakian hasta": 11889,
	"Leaf-bladed sword": 11902,
	"Trident of the seas (full)": 11905,
	"Uncharged trident": 11908,
	"Dragon pickaxe": 11920,
	"Malediction ward": 11924,
	"Odium ward": 11926,
	"Odium shard 1": 11928,
	"Odium shard 2": 11929,
	"Odium shard 3": 11930,
	"Malediction shard 1": 11931,
	"Malediction shard 2": 11932,
	"Malediction shard 3": 11933,
	"Raw dark crab": 11934,
	"Dark crab": 11936,
	"Dark fishing bait": 11940,
	"Lava dragon bones": 11943,
	"Extended antifire (4)": 11951,
	"Extended antifire (3)": 11953,
	"Extended antifire (2)": 11955,
	"Extended antifire (1)": 11957,
	"Black chinchompa": 11959,
	"Extended antifire mix(2)": 11960,
	"Extended antifire mix(1)": 11962,
	"Amulet of glory (t6)": 11964,
	"Skills necklace(6)": 11968,
	"Combat bracelet(6)": 11972,
	"Amulet of glory(6)": 11978,
	"Ring of wealth (5)": 11980,
	"Fedora": 11990,
	"Lava scale": 11992,
	"Lava scale shard": 11994,
	"Smoke battlestaff": 11998,
	"Mystic smoke staff": 12000,
	"Occult necklace": 12002,
	"Kraken tentacle": 12004,
	"Jar of dirt": 12007,
	"Ancient robe top": 12193,
	"Ancient robe legs": 12195,
	"Ancient cloak": 12197,
	"Ancient crozier": 12199,
	"Ancient stole": 12201,
	"Ancient mitre": 12203,
	"Bronze platebody (g)": 12205,
	"Bronze platelegs (g)": 12207,
	"Bronze plateskirt (g)": 12209,
	"Bronze full helm (g)": 12211,
	"Bronze kiteshield (g)": 12213,
	"Bronze platebody (t)": 12215,
	"Bronze platelegs (t)": 12217,
	"Bronze plateskirt (t)": 12219,
	"Bronze full helm (t)": 12221,
	"Bronze kiteshield (t)": 12223,
	"Iron platebody (t)": 12225,
	"Iron platelegs (t)": 12227,
	"Iron plateskirt (t)": 12229,
	"Iron full helm (t)": 12231,
	"Iron kiteshield (t)": 12233,
	"Iron platebody (g)": 12235,
	"Iron platelegs (g)": 12237,
	"Iron plateskirt (g)": 12239,
	"Iron full helm (g)": 12241,
	"Iron kiteshield (g)": 12243,
	"Beanie": 12245,
	"Red beret": 12247,
	"Imp mask": 12249,
	"Goblin mask": 12251,
	"Armadyl robe top": 12253,
	"Armadyl robe legs": 12255,
	"Armadyl stole": 12257,
	"Armadyl mitre": 12259,
	"Armadyl cloak": 12261,
	"Armadyl crozier": 12263,
	"Bandos robe top": 12265,
	"Bandos robe legs": 12267,
	"Bandos stole": 12269,
	"Bandos mitre": 12271,
	"Bandos cloak": 12273,
	"Bandos crozier": 12275,
	"Mithril platebody (g)": 12277,
	"Mithril platelegs (g)": 12279,
	"Mithril kiteshield (g)": 12281,
	"Mithril full helm (g)": 12283,
	"Mithril plateskirt (g)": 12285,
	"Mithril platebody (t)": 12287,
	"Mithril platelegs (t)": 12289,
	"Mithril kiteshield (t)": 12291,
	"Mithril full helm (t)": 12293,
	"Mithril plateskirt (t)": 12295,
	"Black pickaxe": 12297,
	"White headband": 12299,
	"Blue headband": 12301,
	"Gold headband": 12303,
	"Pink headband": 12305,
	"Green headband": 12307,
	"Pink boater": 12309,
	"Purple boater": 12311,
	"White boater": 12313,
	"Pink elegant shirt": 12315,
	"Pink elegant legs": 12317,
	"Crier hat": 12319,
	"White cavalier": 12321,
	"Red cavalier": 12323,
	"Navy cavalier": 12325,
	"Red d'hide body (g)": 12327,
	"Red d'hide chaps (g)": 12329,
	"Red d'hide body (t)": 12331,
	"Red d'hide chaps (t)": 12333,
	"Briefcase": 12335,
	"Sagacious spectacles": 12337,
	"Pink elegant blouse": 12339,
	"Pink elegant skirt": 12341,
	"Gold elegant blouse": 12343,
	"Gold elegant skirt": 12345,
	"Gold elegant shirt": 12347,
	"Gold elegant legs": 12349,
	"Musketeer hat": 12351,
	"Monocle": 12353,
	"Big pirate hat": 12355,
	"Katana": 12357,
	"Leprechaun hat": 12359,
	"Cat mask": 12361,
	"Bronze dragon mask": 12363,
	"Iron dragon mask": 12365,
	"Steel dragon mask": 12367,
	"Mithril dragon mask": 12369,
	"Lava dragon mask": 12371,
	"Dragon cane": 12373,
	"Black cane": 12375,
	"Adamant cane": 12377,
	"Rune cane": 12379,
	"Black d'hide body (g)": 12381,
	"Black d'hide chaps (g)": 12383,
	"Black d'hide body (t)": 12385,
	"Black d'hide chaps (t)": 12387,
	"Gilded scimitar": 12389,
	"Gilded boots": 12391,
	"Royal gown top": 12393,
	"Royal gown bottom": 12395,
	"Royal crown": 12397,
	"Partyhat & specs": 12399,
	"Nardah teleport": 12402,
	"Digsite teleport": 12403,
	"Feldip hills teleport": 12404,
	"Lunar isle teleport": 12405,
	"Mort'ton teleport": 12406,
	"Pest control teleport": 12407,
	"Piscatoris teleport": 12408,
	"Tai bwo wannai teleport": 12409,
	"Elf camp teleport": 12410,
	"Mos le'harmless teleport": 12411,
	"Pirate hat & patch": 12412,
	"3rd age wand": 12422,
	"3rd age bow": 12424,
	"3rd age longsword": 12426,
	"Penguin mask": 12428,
	"Afro": 12430,
	"Top hat": 12432,
	"Top hat & monocle": 12434,
	"3rd age cloak": 12437,
	"Royal sceptre": 12439,
	"Musketeer tabard": 12441,
	"Musketeer pants": 12443,
	"Black skirt (g)": 12445,
	"Black skirt (t)": 12447,
	"Black wizard robe (g)": 12449,
	"Black wizard robe (t)": 12451,
	"Black wizard hat (g)": 12453,
	"Black wizard hat (t)": 12455,
	"Ancient platebody": 12460,
	"Ancient platelegs": 12462,
	"Ancient plateskirt": 12464,
	"Ancient full helm": 12466,
	"Ancient kiteshield": 12468,
	"Armadyl platebody": 12470,
	"Armadyl platelegs": 12472,
	"Armadyl plateskirt": 12474,
	"Armadyl full helm": 12476,
	"Armadyl kiteshield": 12478,
	"Bandos platebody": 12480,
	"Bandos platelegs": 12482,
	"Bandos plateskirt": 12484,
	"Bandos full helm": 12486,
	"Bandos kiteshield": 12488,
	"Ancient bracers": 12490,
	"Ancient d'hide": 12492,
	"Ancient chaps": 12494,
	"Ancient coif": 12496,
	"Bandos bracers": 12498,
	"Bandos d'hide": 12500,
	"Bandos chaps": 12502,
	"Bandos coif": 12504,
	"Armadyl bracers": 12506,
	"Armadyl d'hide": 12508,
	"Armadyl chaps": 12510,
	"Armadyl coif": 12512,
	"Explorer backpack": 12514,
	"Pith helmet": 12516,
	"Green dragon mask": 12518,
	"Blue dragon mask": 12520,
	"Red dragon mask": 12522,
	"Black dragon mask": 12524,
	"Fury ornament kit": 12526,
	"Dark infinity colour kit": 12528,
	"Light infinity colour kit": 12530,
	"Dragon sq shield ornament kit": 12532,
	"Dragon chainbody ornament kit": 12534,
	"Dragon plate/skirt ornament kit": 12536,
	"Dragon full helm ornament kit": 12538,
	"Deerstalker": 12540,
	"Rangers' tunic": 12596,
	"Holy sandals": 12598,
	"Ring of the gods": 12601,
	"Tyrannical ring": 12603,
	"Treasonous ring": 12605,
	"Bandos page 1": 12613,
	"Bandos page 2": 12614,
	"Bandos page 3": 12615,
	"Bandos page 4": 12616,
	"Armadyl page 1": 12617,
	"Armadyl page 2": 12618,
	"Armadyl page 3": 12619,
	"Armadyl page 4": 12620,
	"Ancient page 1": 12621,
	"Ancient page 2": 12622,
	"Ancient page 3": 12623,
	"Ancient page 4": 12624,
	"Stamina potion(4)": 12625,
	"Stamina potion(3)": 12627,
	"Stamina potion(2)": 12629,
	"Stamina potion(1)": 12631,
	"Stamina mix(2)": 12633,
	"Stamina mix(1)": 12635,
	"Amylase crystal": 12640,
	"Lumberyard teleport": 12642,
	"Super combat potion(4)": 12695,
	"Super combat potion(3)": 12697,
	"Super combat potion(2)": 12699,
	"Super combat potion(1)": 12701,
	"Blue dark bow paint": 12757,
	"Green dark bow paint": 12759,
	"Yellow dark bow paint": 12761,
	"White dark bow paint": 12763,
	"Frozen whip mix": 12769,
	"Volcanic whip mix": 12771,
	"Annakarl teleport": 12775,
	"Carrallangar teleport": 12776,
	"Dareeyak teleport": 12777,
	"Ghorrock teleport": 12778,
	"Kharyrll teleport": 12779,
	"Lassar teleport": 12780,
	"Paddewwa teleport": 12781,
	"Senntisten teleport": 12782,
	"Ring of wealth scroll": 12783,
	"Magic shortbow scroll": 12786,
	"Clue box": 12789,
	"Steam staff upgrade kit": 12798,
	"Dragon pickaxe upgrade kit": 12800,
	"Ward upgrade kit": 12802,
	"Saradomin's tear": 12804,
	"Elysian spirit shield": 12817,
	"Elysian sigil": 12819,
	"Spectral spirit shield": 12821,
	"Spectral sigil": 12823,
	"Arcane spirit shield": 12825,
	"Arcane sigil": 12827,
	"Spirit shield": 12829,
	"Blessed spirit shield": 12831,
	"Holy elixir": 12833,
	"Bounty teleport scroll": 12846,
	"Granite clamp": 12849,
	"Amulet of the damned (full)": 12851,
	"Dwarf cannon set": 12863,
	"Green dragonhide set": 12865,
	"Blue dragonhide set": 12867,
	"Red dragonhide set": 12869,
	"Black dragonhide set": 12871,
	"Guthan's armour set": 12873,
	"Verac's armour set": 12875,
	"Dharok's armour set": 12877,
	"Torag's armour set": 12879,
	"Ahrim's armour set": 12881,
	"Karil's armour set": 12883,
	"Jar of sand": 12885,
	"Uncharged toxic trident": 12900,
	"Toxic staff (uncharged)": 12902,
	"Anti-venom(4)": 12905,
	"Anti-venom(3)": 12907,
	"Anti-venom(2)": 12909,
	"Anti-venom(1)": 12911,
	"Anti-venom+(4)": 12913,
	"Anti-venom+(3)": 12915,
	"Anti-venom+(2)": 12917,
	"Anti-venom+(1)": 12919,
	"Tanzanite fang": 12922,
	"Toxic blowpipe (empty)": 12924,
	"Serpentine visage": 12927,
	"Serpentine helm (uncharged)": 12929,
	"Magic fang": 12932,
	"Zulrah's scales": 12934,
	"Jar of swamp": 12936,
	"Zul-andra teleport": 12938,
	"Bronze set (lg)": 12960,
	"Bronze set (sk)": 12962,
	"Bronze trimmed set (lg)": 12964,
	"Bronze trimmed set (sk)": 12966,
	"Bronze gold-trimmed set (lg)": 12968,
	"Bronze gold-trimmed set (sk)": 12970,
	"Iron set (lg)": 12972,
	"Iron set (sk)": 12974,
	"Iron trimmed set (lg)": 12976,
	"Iron trimmed set (sk)": 12978,
	"Iron gold-trimmed set (lg)": 12980,
	"Iron gold-trimmed set (sk)": 12982,
	"Steel set (lg)": 12984,
	"Steel set (sk)": 12986,
	"Black set (lg)": 12988,
	"Black set (sk)": 12990,
	"Black trimmed set (lg)": 12992,
	"Black trimmed set (sk)": 12994,
	"Black gold-trimmed set (lg)": 12996,
	"Black gold-trimmed set (sk)": 12998,
	"Mithril set (lg)": 13000,
	"Mithril set (sk)": 13002,
	"Mithril trimmed set (lg)": 13004,
	"Mithril trimmed set (sk)": 13006,
	"Mithril gold-trimmed set (lg)": 13008,
	"Mithril gold-trimmed set (sk)": 13010,
	"Adamant set (lg)": 13012,
	"Adamant set (sk)": 13014,
	"Adamant trimmed set (lg)": 13016,
	"Adamant trimmed set (sk)": 13018,
	"Adamant gold-trimmed set (lg)": 13020,
	"Adamant gold-trimmed set (sk)": 13022,
	"Rune armour set (lg)": 13024,
	"Rune armour set (sk)": 13026,
	"Rune trimmed set (lg)": 13028,
	"Rune trimmed set (sk)": 13030,
	"Rune gold-trimmed set (lg)": 13032,
	"Rune gold-trimmed set (sk)": 13034,
	"Gilded armour set (lg)": 13036,
	"Gilded armour set (sk)": 13038,
	"Saradomin armour set (lg)": 13040,
	"Saradomin armour set (sk)": 13042,
	"Zamorak armour set (lg)": 13044,
	"Zamorak armour set (sk)": 13046,
	"Guthix armour set (lg)": 13048,
	"Guthix armour set (sk)": 13050,
	"Armadyl rune armour set (lg)": 13052,
	"Armadyl rune armour set (sk)": 13054,
	"Bandos rune armour set (lg)": 13056,
	"Bandos rune armour set (sk)": 13058,
	"Ancient rune armour set (lg)": 13060,
	"Ancient rune armour set (sk)": 13062,
	"Combat potion set": 13064,
	"Super potion set": 13066,
	"Holy book page set": 13149,
	"Unholy book page set": 13151,
	"Book of balance page set": 13153,
	"Book of war page set": 13155,
	"Book of law page set": 13157,
	"Book of darkness page set": 13159,
	"Zamorak dragonhide set": 13161,
	"Saradomin dragonhide set": 13163,
	"Guthix dragonhide set": 13165,
	"Bandos dragonhide set": 13167,
	"Armadyl dragonhide set": 13169,
	"Ancient dragonhide set": 13171,
	"Partyhat set": 13173,
	"Halloween mask set": 13175,
	"Old school bond": 13190,
	"Amethyst arrow": 21326,
	"Grubby key": 23499,
	"Snape grass seed": 22879,
	"Mask of ranul": 23522,
	"Undead druid": 23522,
	"Dragon knife": 22804,
	"Tattered moon page": 3827,
	"Tattered temple page": 3827,
	"Ring of wealth (1)": 2572,
	"Ring of wealth (2)": 2572,
	"Ring of wealth (3)": 2572,
	"Ring of wealth (4)": 2572,
	"Ring of wealth (6)": 2572,
	"Amethyst dart": 25849,
	"Potato cactus seed": 22873,
	"Dragonstone bolts (e)": 9244
}