{
	"buySellModel": {
		"enableSelling": {
			"flag": true
		},
		"sellItems": {
			"delegate": [
				{
					"name": "Bones",
					"keepAmount": 0
				},
				{
					"name": "Air battlestaff",
					"keepAmount": 0
				},
				{
					"name": "Earth battlestaff",
					"keepAmount": 0
				},
				{
					"name": "Air rune",
					"keepAmount": 0
				},
				{
					"name": "Earth rune",
					"keepAmount": 0
				},
				{
					"name": "Blood rune",
					"keepAmount": 0
				},
				{
					"name": "Chaos rune",
					"keepAmount": 0
				},
				{
					"name": "Cosmic rune",
					"keepAmount": 0
				},
				{
					"name": "Death rune",
					"keepAmount": 0
				},
				{
					"name": "Nature rune",
					"keepAmount": 0
				},
				{
					"name": "Mud rune",
					"keepAmount": 0
				},
				{
					"name": "Law rune",
					"keepAmount": 0
				},
				{
					"name": "Grimy guam leaf",
					"keepAmount": 0
				},
				{
					"name": "Grimy marrentill",
					"keepAmount": 0
				},
				{
					"name": "Grimy tarromin",
					"keepAmount": 0
				},
				{
					"name": "Law Grimy harralander",
					"keepAmount": 0
				},
				{
					"name": "Grimy ranarr weed",
					"keepAmount": 0
				},
				{
					"name": "Grimy irit leaf",
					"keepAmount": 0
				},
				{
					"name": "Grimy avantoe",
					"keepAmount": 0
				},
				{
					"name": "Grimy kwuarm",
					"keepAmount": 0
				},
				{
					"name": "Grimy cadantine",
					"keepAmount": 0
				},
				{
					"name": "Grimy lantadyme",
					"keepAmount": 0
				},
				{
					"name": "Grimy dwarf weed",
					"keepAmount": 0
				},
				{
					"name": "Limpwurt seed",
					"keepAmount": 0
				},
				{
					"name": "Strawberry seed",
					"keepAmount": 0
				},
				{
					"name": "Marrentill seed",
					"keepAmount": 0
				},
				{
					"name": "Jangerberry seed",
					"keepAmount": 0
				},
				{
					"name": "Tarromin seed",
					"keepAmount": 0
				},
				{
					"name": "Wildblood seed",
					"keepAmount": 0
				},
				{
					"name": "Watermelon seed",
					"keepAmount": 0
				},
				{
					"name": "Harralander seed",
					"keepAmount": 0
				},
				{
					"name": "Snape grass seed",
					"keepAmount": 0
				},
				{
					"name": "Ranarr seed",
					"keepAmount": 0
				},
				{
					"name": "Whiteberry seed",
					"keepAmount": 0
				},
				{
					"name": "Mushroom spore",
					"keepAmount": 0
				},
				{
					"name": "Toadflax seed",
					"keepAmount": 0
				},
				{
					"name": "Belladonna seed",
					"keepAmount": 0
				},
				{
					"name": "Irit seed",
					"keepAmount": 0
				},
				{
					"name": "Poison ivy seed",
					"keepAmount": 0
				},
				{
					"name": "Avantoe seed",
					"keepAmount": 0
				},
				{
					"name": "Cactus seed",
					"keepAmount": 0
				},
				{
					"name": "Kwuarm seed",
					"keepAmount": 0
				},
				{
					"name": "Potato cactus seed",
					"keepAmount": 0
				},
				{
					"name": "Snapdragon seed",
					"keepAmount": 0
				},
				{
					"name": "Cadantine seed",
					"keepAmount": 0
				},
				{
					"name": "Lantadyme seed",
					"keepAmount": 0
				},
				{
					"name": "Dwarf weed seed",
					"keepAmount": 0
				},
				{
					"name": "Torstol seed",
					"keepAmount": 0
				},
				{
					"name": "Eye of newt",
					"keepAmount": 0
				},
				{
					"name": "Potato cactus",
					"keepAmount": 0
				},
				{
					"name": "White berries",
					"keepAmount": 0
				},
				{
					"name": "Wine of zamorak",
					"keepAmount": 0
				},
				{
					"name": "Amulet of defence",
					"keepAmount": 1
				},
				{
					"name": "Amulet of magic",
					"keepAmount": 1
				},
				{
					"name": "Amulet of strength",
					"keepAmount": 1
				},
				{
					"name": "Uncut sapphire",
					"keepAmount": 0
				},
				{
					"name": "Uncut emerald",
					"keepAmount": 0
				},
				{
					"name": "Uncut ruby",
					"keepAmount": 0
				},
				{
					"name": "Nature talisman",
					"keepAmount": 0
				},
				{
					"name": "Uncut diamond",
					"keepAmount": 0
				},
				{
					"name": "Loop half of key",
					"keepAmount": 0
				},
				{
					"name": "Tooth half of key",
					"keepAmount": 0
				},
				{
					"name": "Rune javelin",
					"keepAmount": 0
				},
				{
					"name": "Rune spear",
					"keepAmount": 0
				},
				{
					"name": "Shield left half",
					"keepAmount": 0
				},
				{
					"name": "Dragon spear",
					"keepAmount": 0
				},
				{
					"name": "Grubby key",
					"keepAmount": 0
				}
			]
		},
		"minSellValue": {
			"value": 0.25
		},
		"buy100kGP": {
			"value": 150
		},
		"buy10kGP": {
			"value": 200
		},
		"buy1kGP": {
			"value": 500
		},
		"buy1GP": {
			"value": 900
		},
		"buyMode": {
			"value": "ADAPTIVE"
		},
		"sell100kGP": {
			"value": 85
		},
		"sell10kGP": {
			"value": 75
		},
		"sell1kGP": {
			"value": 60
		},
		"sell1GP": {
			"value": 35
		},
		"sellMode": {
			"value": "ADAPTIVE"
		},
		"instantSell": {
			"flag": true
		}
	},
	"overviewModel": {
		"muleModel": {
			"name": {
				"str": "killamonketa"
			},
			"amount": {
				"value": 2.0
			},
			"world": {
				"value": 452
			}
		},
		"rangedLevelCaps": {
			"Slayer": 18,
			"Crafting": 19,
			"Agility": 12,
			"Prayer": 43,
			"Woodcutting": 35,
			"Defence": 40,
			"Ranged": 61
		},
		"meleeLevelCaps": {
			"Prayer": 43,
			"Attack": 50,
			"Strength": 50,
			"Defence": 50
		},
		"food": {
			"item": "SHARK",
			"amount": 4
		},
		"rangedBoost": {
			"item": "RANGING",
			"amount": 4
		},
		"meleeBoost": {
			"item": "SUPER_COMBAT",
			"amount": 4
		},
		"location": {
			"item": "AUSTRALIA"
		},
		"sellLoot": {
			"flag": true
		},
		"decantPotions": {
			"flag": true
		},
		"useAvas": {
			"flag": true
		},
		"gainDefence": {
			"flag": false
		},
		"maxPlayerAmount": {
			"item": 2
		}
	},
	"combatStyle": {
		"item": "Ranged"
	},
	"additionalReqs": []
}